av3/vending_machine/simulation/qsim/vending_machine.msim.vcd
$comment
	File created using the following command:
		vcd file vending_machine.msim.vcd -direction
$end
$date
	Thu Dec 08 16:11:07 2022
$end
$version
	ModelSim Version 10.1d
$end
$timescale
	1ps
$end
$scope module system_2_vlg_vec_tst $end
$var reg 8 ! a [7:0] $end
$var reg 1 " c $end
$var reg 1 # clock $end
$var reg 1 $ reset $end
$var reg 8 % s [7:0] $end
$var wire 1 & d $end
$var wire 1 ' sampler $end
$scope module i1 $end
$var wire 1 ( gnd $end
$var wire 1 ) vcc $end
$var wire 1 * unknown $end
$var tri1 1 + devclrn $end
$var tri1 1 , devpor $end
$var tri1 1 - devoe $end
$var wire 1 . d~output_o $end
$var wire 1 / reset~input_o $end
$var wire 1 0 clock~input_o $end
$var wire 1 1 s[7]~input_o $end
$var wire 1 2 inst1|reg_fstate.begining~0_combout $end
$var wire 1 3 inst1|fstate.begining~q $end
$var wire 1 4 inst1|tot_clr~0_combout $end
$var wire 1 5 c~input_o $end
$var wire 1 6 inst1|reg_fstate.add~0_combout $end
$var wire 1 7 inst1|fstate.add~q $end
$var wire 1 8 inst1|tot_ld~0_combout $end
$var wire 1 9 a[7]~input_o $end
$var wire 1 : a[6]~input_o $end
$var wire 1 ; a[5]~input_o $end
$var wire 1 < a[4]~input_o $end
$var wire 1 = a[3]~input_o $end
$var wire 1 > a[2]~input_o $end
$var wire 1 ? a[1]~input_o $end
$var wire 1 @ a[0]~input_o $end
$var wire 1 A inst2|inst3|totalR[0]~0_combout $end
$var wire 1 B inst2|inst3|totalR[0]~1 $end
$var wire 1 C inst2|inst3|totalR[1]~2_combout $end
$var wire 1 D inst2|inst3|totalR[1]~3 $end
$var wire 1 E inst2|inst3|totalR[2]~4_combout $end
$var wire 1 F inst2|inst3|totalR[2]~5 $end
$var wire 1 G inst2|inst3|totalR[3]~6_combout $end
$var wire 1 H inst2|inst3|totalR[3]~7 $end
$var wire 1 I inst2|inst3|totalR[4]~8_combout $end
$var wire 1 J inst2|inst3|totalR[4]~9 $end
$var wire 1 K inst2|inst3|totalR[5]~10_combout $end
$var wire 1 L inst2|inst3|totalR[5]~11 $end
$var wire 1 M inst2|inst3|totalR[6]~12_combout $end
$var wire 1 N inst2|inst3|totalR[6]~13 $end
$var wire 1 O inst2|inst3|totalR[7]~14_combout $end
$var wire 1 P s[6]~input_o $end
$var wire 1 Q s[5]~input_o $end
$var wire 1 R s[4]~input_o $end
$var wire 1 S s[3]~input_o $end
$var wire 1 T s[2]~input_o $end
$var wire 1 U s[1]~input_o $end
$var wire 1 V s[0]~input_o $end
$var wire 1 W inst2|inst|LessThan0~1_cout $end
$var wire 1 X inst2|inst|LessThan0~3_cout $end
$var wire 1 Y inst2|inst|LessThan0~5_cout $end
$var wire 1 Z inst2|inst|LessThan0~7_cout $end
$var wire 1 [ inst2|inst|LessThan0~9_cout $end
$var wire 1 \ inst2|inst|LessThan0~11_cout $end
$var wire 1 ] inst2|inst|LessThan0~13_cout $end
$var wire 1 ^ inst2|inst|LessThan0~14_combout $end
$var wire 1 _ inst1|reg_fstate.wait_not_c~0_combout $end
$var wire 1 ` inst1|fstate.wait_not_c~q $end
$var wire 1 a inst1|reg_fstate.waiting~3_combout $end
$var wire 1 b inst1|reg_fstate.waiting~12_combout $end
$var wire 1 c inst1|fstate.waiting~q $end
$var wire 1 d inst1|reg_fstate.provide~2_combout $end
$var wire 1 e inst1|fstate.provide~q $end
$var wire 1 f inst1|d~0_combout $end
$var wire 1 g inst2|inst2|totalC [7] $end
$var wire 1 h inst2|inst2|totalC [6] $end
$var wire 1 i inst2|inst2|totalC [5] $end
$var wire 1 j inst2|inst2|totalC [4] $end
$var wire 1 k inst2|inst2|totalC [3] $end
$var wire 1 l inst2|inst2|totalC [2] $end
$var wire 1 m inst2|inst2|totalC [1] $end
$var wire 1 n inst2|inst2|totalC [0] $end
$var wire 1 o inst2|inst2|totalS [7] $end
$var wire 1 p inst2|inst2|totalS [6] $end
$var wire 1 q inst2|inst2|totalS [5] $end
$var wire 1 r inst2|inst2|totalS [4] $end
$var wire 1 s inst2|inst2|totalS [3] $end
$var wire 1 t inst2|inst2|totalS [2] $end
$var wire 1 u inst2|inst2|totalS [1] $end
$var wire 1 v inst2|inst2|totalS [0] $end
$upscope $end
$upscope $end
$enddefinitions $end
#0
$dumpvars
b110010 !
0"
0#
0$
b1111101 %
0&
x'
0(
1)
x*
1+
1,
1-
0.
0/
00
01
02
03
04
05
06
07
08
09
0:
1;
1<
0=
0>
1?
0@
0A
0B
1C
1D
0E
0F
0G
1H
1I
0J
1K
1L
0M
0N
0O
1P
1Q
1R
1S
1T
0U
1V
0W
1X
0Y
1Z
0[
1\
0]
0^
0_
0`
0a
0b
0c
0d
0e
0f
0n
0m
0l
0k
0j
0i
0h
0g
0v
0u
0t
0s
0r
0q
0p
0o
$end
#5000
1#
10
0'
#10000
0#
00
1'
#15000
1#
10
0'
#20000
1$
0#
1/
00
1'
1b
14
12
#25000
1#
10
0'
1c
13
1a
0b
04
1b
#30000
0#
00
1'
#35000
1#
10
0'
#40000
0#
00
1'
#45000
1#
10
0'
#50000
1"
0#
15
00
1'
0b
16
#55000
1#
10
0'
0c
17
0a
06
1_
18
#60000
0#
00
1'
#65000
1#
10
0'
1`
1m
1j
1i
1q
1r
1u
07
1a
0X
0L
0K
1J
0I
0D
0C
08
1M
1K
1E
#70000
0#
00
1'
#75000
1#
10
0'
#80000
0#
00
1'
#85000
1#
10
0'
#90000
0#
00
1'
#95000
1#
10
0'
#100000
0"
0#
05
00
1'
1b
0_
#105000
1#
10
0'
1c
0`
#110000
0#
00
1'
#115000
1#
10
0'
#120000
0#
00
1'
#125000
1#
10
0'
#130000
0#
00
1'
#135000
1#
10
0'
#140000
0#
00
1'
#145000
1#
10
0'
#150000
1"
0#
15
00
1'
0b
16
#155000
1#
10
0'
0c
17
0a
06
1_
18
#160000
0#
00
1'
#165000
1#
10
0'
1`
0m
1l
0j
1h
1p
0r
1t
0u
07
1a
1X
1Y
1N
0M
0J
1I
1F
0E
1D
1C
08
0Y
1O
0K
1G
0F
1E
0G
#170000
0#
00
1'
#175000
1#
10
0'
#180000
0#
00
1'
#185000
1#
10
0'
#190000
0#
00
1'
#195000
1#
10
0'
#200000
0#
00
1'
#205000
1#
10
0'
#210000
0"
0#
05
00
1'
1b
0_
#215000
1#
10
0'
1c
0`
#220000
0#
00
1'
#225000
1#
10
0'
#230000
0#
00
1'
#235000
1#
10
0'
#240000
0#
00
1'
#245000
1#
10
0'
#250000
0#
00
1'
#255000
1#
10
0'
#260000
1"
0#
15
00
1'
0b
16
#265000
1#
10
0'
0c
17
0a
06
1_
18
#270000
0#
00
1'
#275000
1#
10
0'
1`
1m
1j
0i
0h
1g
0p
0q
1r
1u
1o
07
1a
0X
1^
0N
1M
1L
1K
1J
0I
0D
0C
0O
08
1Y
1O
0M
0L
0K
1F
0E
1M
1G
#280000
0#
00
1'
#285000
1#
10
0'
#290000
0"
0#
05
00
1'
1b
0_
#295000
1#
10
0'
1c
0`
1d
0a
0b
#300000
0#
00
1'
#305000
1#
10
0'
1e
0c
02
0d
1f
1.
1&
#310000
1"
0#
15
00
1'
#315000
1#
10
0'
0e
03
12
1b
14
0f
0.
0&
0o
0u
0t
0r
0O
1D
1C
0F
1E
0J
1I
0E
0G
1L
1K
0M
#320000
0#
00
1'
#325000
1#
10
0'
1c
13
16
0b
04
#330000
0#
00
1'
#335000
1#
10
0'
0c
17
06
1_
18
#340000
0#
00
1'
#345000
1#
10
0'
1`
0l
1i
0g
1q
1r
1u
07
1a
0Y
0^
0L
0K
1J
0I
0D
0C
08
1M
1K
1E
#350000
0#
00
1'
#355000
1#
10
0'
#360000
0#
00
1'
#365000
1#
10
0'
#370000
0"
0#
05
00
1'
1b
0_
#375000
1#
10
0'
1c
0`
#380000
0#
00
1'
#385000
1#
10
0'
#390000
0#
00
1'
#395000
1#
10
0'
#400000
0#
00
1'
#405000
1#
10
0'
#410000
0#
00
1'
#415000
1#
10
0'
#420000
0#
00
1'
#425000
1#
10
0'
#430000
0#
00
1'
#435000
1#
10
0'
#440000
0#
00
1'
#445000
1#
10
0'
#450000
1"
0#
15
00
1'
0b
16
#455000
1#
10
0'
0c
17
0a
06
1_
18
#460000
0#
00
1'
#465000
1#
10
0'
1`
0m
1l
0j
1h
1p
0r
1t
0u
07
1a
1X
1Y
1N
0M
0J
1I
1F
0E
1D
1C
08
0Y
1O
0K
1G
0F
1E
0G
#470000
0#
00
1'
#475000
1#
10
0'
#480000
0#
00
1'
#485000
1#
10
0'
#490000
0#
00
1'
#495000
1#
10
0'
#500000
0#
00
1'
#505000
1#
10
0'
#510000
0"
0#
05
00
1'
1b
0_
#515000
1#
10
0'
1c
0`
#520000
0#
00
1'
#525000
1#
10
0'
#530000
0#
00
1'
#535000
1#
10
0'
#540000
0#
00
1'
#545000
1#
10
0'
#550000
0#
00
1'
#555000
1#
10
0'
#560000
0#
00
1'
#565000
1#
10
0'
#570000
0#
00
1'
#575000
1#
10
0'
#580000
0#
00
1'
#585000
1#
10
0'
#590000
0#
00
1'
#595000
1#
10
0'
#600000
0#
00
1'
#605000
1#
10
0'
#610000
0#
00
1'
#615000
1#
10
0'
#620000
0#
00
1'
#625000
1#
10
0'
#630000
0#
00
1'
#635000
1#
10
0'
#640000
0#
00
1'
#645000
1#
10
0'
#650000
0#
00
1'
#655000
1#
10
0'
#660000
0#
00
1'
#665000
1#
10
0'
#670000
0#
00
1'
#675000
1#
10
0'
#680000
0#
00
1'
#685000
1#
10
0'
#690000
0#
00
1'
#695000
1#
10
0'
#700000
0#
00
1'
#705000
1#
10
0'
#710000
0#
00
1'
#715000
1#
10
0'
#720000
0#
00
1'
#725000
1#
10
0'
#730000
0#
00
1'
#735000
1#
10
0'
#740000
0#
00
1'
#745000
1#
10
0'
#750000
0#
00
1'
#755000
1#
10
0'
#760000
0#
00
1'
#765000
1#
10
0'
#770000
0#
00
1'
#775000
1#
10
0'
#780000
0#
00
1'
#785000
1#
10
0'
#790000
0#
00
1'
#795000
1#
10
0'
#800000
0#
00
1'
#805000
1#
10
0'
#810000
0#
00
1'
#815000
1#
10
0'
#820000
0#
00
1'
#825000
1#
10
0'
#830000
0#
00
1'
#835000
1#
10
0'
#840000
0#
00
1'
#845000
1#
10
0'
#850000
0#
00
1'
#855000
1#
10
0'
#860000
0#
00
1'
#865000
1#
10
0'
#870000
0#
00
1'
#875000
1#
10
0'
#880000
0#
00
1'
#885000
1#
10
0'
#890000
0#
00
1'
#895000
1#
10
0'
#900000
0#
00
1'
#905000
1#
10
0'
#910000
0#
00
1'
#915000
1#
10
0'
#920000
0#
00
1'
#925000
1#
10
0'
#930000
0#
00
1'
#935000
1#
10
0'
#940000
0#
00
1'
#945000
1#
10
0'
#950000
0#
00
1'
#955000
1#
10
0'
#960000
0#
00
1'
#965000
1#
10
0'
#970000
0#
00
1'
#975000
1#
10
0'
#980000
0#
00
1'
#985000
1#
10
0'
#990000
0#
00
1'
#995000
1#
10
0'
