av3/vending_machine/simulation/qsim/vending_machine.msim.vcd
$comment
	File created using the following command:
		vcd file vending_machine.msim.vcd -direction
$end
$date
	Tue Dec 06 20:34:29 2022
$end
$version
	ModelSim Version 10.1d
$end
$timescale
	1ps
$end
$scope module operational_vlg_vec_tst $end
$var reg 8 ! a [7:0] $end
$var reg 1 " clock $end
$var reg 8 # s [7:0] $end
$var reg 1 $ tot_clr $end
$var reg 1 % tot_ld $end
$var wire 1 & tot_lt_s $end
$var wire 1 ' sampler $end
$scope module i1 $end
$var wire 1 ( gnd $end
$var wire 1 ) vcc $end
$var wire 1 * unknown $end
$var tri1 1 + devclrn $end
$var tri1 1 , devpor $end
$var tri1 1 - devoe $end
$var wire 1 . tot_lt_s~output_o $end
$var wire 1 / s[7]~input_o $end
$var wire 1 0 clock~input_o $end
$var wire 1 1 tot_clr~input_o $end
$var wire 1 2 tot_ld~input_o $end
$var wire 1 3 a[7]~input_o $end
$var wire 1 4 a[6]~input_o $end
$var wire 1 5 a[5]~input_o $end
$var wire 1 6 a[4]~input_o $end
$var wire 1 7 a[3]~input_o $end
$var wire 1 8 a[2]~input_o $end
$var wire 1 9 a[1]~input_o $end
$var wire 1 : a[0]~input_o $end
$var wire 1 ; inst3|totalR[0]~0_combout $end
$var wire 1 < inst3|totalR[0]~1 $end
$var wire 1 = inst3|totalR[1]~2_combout $end
$var wire 1 > inst3|totalR[1]~3 $end
$var wire 1 ? inst3|totalR[2]~4_combout $end
$var wire 1 @ inst3|totalR[2]~5 $end
$var wire 1 A inst3|totalR[3]~6_combout $end
$var wire 1 B inst3|totalR[3]~7 $end
$var wire 1 C inst3|totalR[4]~8_combout $end
$var wire 1 D inst3|totalR[4]~9 $end
$var wire 1 E inst3|totalR[5]~10_combout $end
$var wire 1 F inst3|totalR[5]~11 $end
$var wire 1 G inst3|totalR[6]~12_combout $end
$var wire 1 H inst3|totalR[6]~13 $end
$var wire 1 I inst3|totalR[7]~14_combout $end
$var wire 1 J inst2|totalC[7]~0_combout $end
$var wire 1 K s[6]~input_o $end
$var wire 1 L s[5]~input_o $end
$var wire 1 M s[4]~input_o $end
$var wire 1 N s[3]~input_o $end
$var wire 1 O s[2]~input_o $end
$var wire 1 P s[1]~input_o $end
$var wire 1 Q s[0]~input_o $end
$var wire 1 R inst|LessThan0~1_cout $end
$var wire 1 S inst|LessThan0~3_cout $end
$var wire 1 T inst|LessThan0~5_cout $end
$var wire 1 U inst|LessThan0~7_cout $end
$var wire 1 V inst|LessThan0~9_cout $end
$var wire 1 W inst|LessThan0~11_cout $end
$var wire 1 X inst|LessThan0~13_cout $end
$var wire 1 Y inst|LessThan0~14_combout $end
$var wire 1 Z inst2|totalS [7] $end
$var wire 1 [ inst2|totalS [6] $end
$var wire 1 \ inst2|totalS [5] $end
$var wire 1 ] inst2|totalS [4] $end
$var wire 1 ^ inst2|totalS [3] $end
$var wire 1 _ inst2|totalS [2] $end
$var wire 1 ` inst2|totalS [1] $end
$var wire 1 a inst2|totalS [0] $end
$var wire 1 b inst2|totalC [7] $end
$var wire 1 c inst2|totalC [6] $end
$var wire 1 d inst2|totalC [5] $end
$var wire 1 e inst2|totalC [4] $end
$var wire 1 f inst2|totalC [3] $end
$var wire 1 g inst2|totalC [2] $end
$var wire 1 h inst2|totalC [1] $end
$var wire 1 i inst2|totalC [0] $end
$upscope $end
$upscope $end
$enddefinitions $end
#0
$dumpvars
b110010 !
0"
b1111110 #
1$
0%
1&
x'
0(
1)
x*
1+
1,
1-
1.
0/
00
11
02
03
04
15
16
07
08
19
0:
0;
0<
1=
1>
0?
0@
0A
1B
1C
0D
1E
1F
0G
0H
0I
0J
1K
1L
1M
1N
1O
1P
0Q
0R
1S
0T
1U
0V
1W
0X
0Y
0a
0`
0_
0^
0]
0\
0[
0Z
0i
0h
0g
0f
0e
0d
0c
0b
$end
#25000
1"
10
0'
#40000
0$
01
1'
#50000
0"
00
0'
#75000
1"
10
1'
#100000
1%
0"
12
00
0'
1J
#125000
1"
10
1'
1h
1e
1d
1\
1]
1`
0F
0E
1D
0C
0>
0=
1G
1E
1?
#130000
0%
02
0'
0J
#150000
0"
00
1'
#175000
1"
10
0'
#200000
0"
00
1'
#210000
1%
12
0'
1J
#225000
1"
10
1'
0h
1g
0e
1c
1[
0]
1_
0`
1H
0G
0D
1C
1@
0?
1>
1=
1I
0E
1A
0@
1?
0A
#250000
0"
00
0'
#270000
0%
02
1'
0J
#275000
1"
10
0'
#300000
0"
00
1'
#325000
1"
10
0'
#350000
0"
00
1'
#375000
1"
10
0'
#400000
0"
00
1'
#410000
1%
12
0'
1J
#425000
1"
10
1'
1h
1e
0d
0c
1b
0[
0\
1]
1`
1Z
1Y
0H
1G
1F
1E
1D
0C
0>
0=
0I
1I
0G
0F
0E
1@
0?
0.
0&
1G
1A
#450000
0%
0"
02
00
0'
0J
#475000
1"
10
1'
#500000
0"
00
0'
#525000
1"
10
1'
#550000
0"
00
0'
#560000
1%
12
1'
1J
#575000
1"
10
0'
0h
0g
1f
0e
1c
1[
0]
1^
0_
0`
1H
0G
0D
1C
0B
0A
0@
1?
1>
1=
0I
1F
1E
1D
0C
1B
1A
0?
0H
1G
0F
0E
0D
1C
1I
1H
0G
1F
1E
0I
0H
1G
1I
#600000
0"
00
1'
#620000
0%
02
0'
0J
#625000
1"
10
1'
#650000
0"
00
0'
#675000
1"
10
1'
#700000
0"
00
0'
#725000
1"
10
1'
#750000
0"
00
0'
#775000
1"
10
1'
#800000
0"
00
0'
#825000
1"
10
1'
#850000
0"
00
0'
#875000
1"
10
1'
#900000
0"
00
0'
#925000
1"
10
1'
#950000
0"
00
0'
#975000
1"
10
1'
