av3/vending_machine/simulation/qsim/vending_machine.msim.vcd
$comment
	File created using the following command:
		vcd file vending_machine.msim.vcd -direction
$end
$date
	Tue Dec 06 18:00:21 2022
$end
$version
	ModelSim Version 10.1d
$end
$timescale
	1ps
$end
$scope module operational_vlg_vec_tst $end
$var reg 8 ! a [7:0] $end
$var reg 1 " clock $end
$var reg 8 # s [7:0] $end
$var reg 1 $ tot_clr $end
$var reg 1 % tot_ld $end
$var wire 1 & tot_lt_s $end
$var wire 1 ' sampler $end
$scope module i1 $end
$var wire 1 ( gnd $end
$var wire 1 ) vcc $end
$var wire 1 * unknown $end
$var tri1 1 + devclrn $end
$var tri1 1 , devpor $end
$var tri1 1 - devoe $end
$var wire 1 . tot_lt_s~output_o $end
$var wire 1 / s[7]~input_o $end
$var wire 1 0 clock~input_o $end
$var wire 1 1 clock~inputclkctrl_outclk $end
$var wire 1 2 tot_clr~input_o $end
$var wire 1 3 tot_clr~inputclkctrl_outclk $end
$var wire 1 4 tot_ld~input_o $end
$var wire 1 5 a[7]~input_o $end
$var wire 1 6 a[6]~input_o $end
$var wire 1 7 a[5]~input_o $end
$var wire 1 8 a[4]~input_o $end
$var wire 1 9 a[3]~input_o $end
$var wire 1 : a[2]~input_o $end
$var wire 1 ; a[1]~input_o $end
$var wire 1 < a[0]~input_o $end
$var wire 1 = inst3|totalR[0]~0_combout $end
$var wire 1 > inst3|totalR[0]~1 $end
$var wire 1 ? inst3|totalR[1]~2_combout $end
$var wire 1 @ inst3|totalR[1]~3 $end
$var wire 1 A inst3|totalR[2]~4_combout $end
$var wire 1 B inst3|totalR[2]~5 $end
$var wire 1 C inst3|totalR[3]~6_combout $end
$var wire 1 D inst3|totalR[3]~7 $end
$var wire 1 E inst3|totalR[4]~8_combout $end
$var wire 1 F inst3|totalR[4]~9 $end
$var wire 1 G inst3|totalR[5]~10_combout $end
$var wire 1 H inst3|totalR[5]~11 $end
$var wire 1 I inst3|totalR[6]~12_combout $end
$var wire 1 J inst3|totalR[6]~13 $end
$var wire 1 K inst3|totalR[7]~14_combout $end
$var wire 1 L inst2|totalC[7]~feeder_combout $end
$var wire 1 M inst2|totalC[7]~0_combout $end
$var wire 1 N s[6]~input_o $end
$var wire 1 O inst2|totalC[6]~feeder_combout $end
$var wire 1 P s[5]~input_o $end
$var wire 1 Q inst2|totalC[5]~feeder_combout $end
$var wire 1 R s[4]~input_o $end
$var wire 1 S inst2|totalC[4]~feeder_combout $end
$var wire 1 T inst2|totalC[3]~feeder_combout $end
$var wire 1 U s[3]~input_o $end
$var wire 1 V s[2]~input_o $end
$var wire 1 W inst2|totalC[2]~feeder_combout $end
$var wire 1 X inst2|totalC[1]~feeder_combout $end
$var wire 1 Y s[1]~input_o $end
$var wire 1 Z s[0]~input_o $end
$var wire 1 [ inst|LessThan0~1_cout $end
$var wire 1 \ inst|LessThan0~3_cout $end
$var wire 1 ] inst|LessThan0~5_cout $end
$var wire 1 ^ inst|LessThan0~7_cout $end
$var wire 1 _ inst|LessThan0~9_cout $end
$var wire 1 ` inst|LessThan0~11_cout $end
$var wire 1 a inst|LessThan0~13_cout $end
$var wire 1 b inst|LessThan0~14_combout $end
$var wire 1 c inst2|totalS [7] $end
$var wire 1 d inst2|totalS [6] $end
$var wire 1 e inst2|totalS [5] $end
$var wire 1 f inst2|totalS [4] $end
$var wire 1 g inst2|totalS [3] $end
$var wire 1 h inst2|totalS [2] $end
$var wire 1 i inst2|totalS [1] $end
$var wire 1 j inst2|totalS [0] $end
$var wire 1 k inst2|totalC [7] $end
$var wire 1 l inst2|totalC [6] $end
$var wire 1 m inst2|totalC [5] $end
$var wire 1 n inst2|totalC [4] $end
$var wire 1 o inst2|totalC [3] $end
$var wire 1 p inst2|totalC [2] $end
$var wire 1 q inst2|totalC [1] $end
$var wire 1 r inst2|totalC [0] $end
$upscope $end
$upscope $end
$enddefinitions $end
#0
$dumpvars
b110010 !
0"
b1111110 #
1$
0%
1&
x'
0(
1)
x*
1+
1,
1-
1.
0/
00
01
12
13
04
05
06
17
18
09
0:
1;
0<
0=
0>
1?
1@
0A
0B
0C
1D
1E
0F
1G
1H
0I
0J
0K
0L
0M
1N
0O
1P
1Q
1R
1S
0T
1U
1V
0W
1X
1Y
0Z
0[
1\
0]
1^
0_
1`
0a
0b
0j
0i
0h
0g
0f
0e
0d
0c
0r
0q
0p
0o
0n
0m
0l
0k
$end
#25000
1"
10
11
0'
#40000
0$
02
03
1'
#50000
0"
00
01
0'
#75000
1"
10
11
1'
#100000
1%
0"
14
00
01
0'
1M
#125000
1"
10
11
1'
1q
1n
1m
1e
1f
1i
0H
0G
1F
0E
0@
0?
1I
0Q
1G
0S
1A
0X
1O
1Q
1W
#130000
0%
04
0'
0M
#150000
0"
00
01
1'
#175000
1"
10
11
0'
#200000
0"
00
01
1'
#210000
1%
14
0'
1M
#225000
1"
10
11
1'
0q
1p
0n
1l
1d
0f
1h
0i
1J
0I
0F
1E
1B
0A
1@
1?
1K
0O
0G
1S
1C
0W
0B
1A
1X
1L
0Q
1T
0C
1W
0T
#250000
0"
00
01
0'
#270000
0%
04
1'
0M
#275000
1"
10
11
0'
#300000
0"
00
01
1'
#325000
1"
10
11
0'
#350000
0"
00
01
1'
#375000
1"
10
11
0'
#400000
0"
00
01
1'
#410000
1%
14
0'
1M
#425000
1"
10
11
1'
1q
1n
0m
0l
1k
0d
0e
1f
1i
1c
1b
0J
1I
1H
1G
1F
0E
0@
0?
0K
1K
1O
0I
1Q
0H
0G
0S
1B
0A
0X
0L
0.
0&
1L
0O
1I
0Q
1C
0W
1O
1T
#450000
0%
0"
04
00
01
0'
0M
#475000
1"
10
11
1'
#500000
0"
00
01
0'
#525000
1"
10
11
1'
#550000
0"
00
01
0'
#560000
1%
14
1'
1M
#575000
1"
10
11
0'
0q
0p
1o
0n
1l
1d
0f
1g
0h
0i
1J
0I
0F
1E
0D
0C
0B
1A
1@
1?
0K
0O
1H
1G
1S
1F
0E
0T
1D
1C
1W
0A
1X
0L
0J
1I
1Q
0H
0G
0S
0F
1E
1T
0W
1K
1O
1J
0I
0Q
1H
1G
1S
1L
0K
0O
0J
1I
1Q
0L
1K
1O
1L
#600000
0"
00
01
1'
#620000
0%
04
0'
0M
#625000
1"
10
11
1'
#650000
0"
00
01
0'
#675000
1"
10
11
1'
#700000
0"
00
01
0'
#725000
1"
10
11
1'
#750000
0"
00
01
0'
#775000
1"
10
11
1'
#800000
0"
00
01
0'
#825000
1"
10
11
1'
#850000
0"
00
01
0'
#875000
1"
10
11
1'
#900000
0"
00
01
0'
#925000
1"
10
11
1'
#950000
0"
00
01
0'
#975000
1"
10
11
1'
