av3/semaphore/simulation/qsim/semaphore.msim.vcd
$comment
	File created using the following command:
		vcd file semaphore.msim.vcd -direction
$end
$date
	Tue Dec 06 17:55:05 2022
$end
$version
	ModelSim Version 10.1d
$end
$timescale
	1ps
$end
$scope module counter_5bit_vlg_vec_tst $end
$var reg 1 ! clock $end
$var reg 1 " reset $end
$var wire 1 # q [4] $end
$var wire 1 $ q [3] $end
$var wire 1 % q [2] $end
$var wire 1 & q [1] $end
$var wire 1 ' q [0] $end
$var wire 1 ( sampler $end
$scope module i1 $end
$var wire 1 ) gnd $end
$var wire 1 * vcc $end
$var wire 1 + unknown $end
$var tri1 1 , devclrn $end
$var tri1 1 - devpor $end
$var tri1 1 . devoe $end
$var wire 1 / q[0]~output_o $end
$var wire 1 0 q[1]~output_o $end
$var wire 1 1 q[2]~output_o $end
$var wire 1 2 q[3]~output_o $end
$var wire 1 3 q[4]~output_o $end
$var wire 1 4 reset~input_o $end
$var wire 1 5 clock~input_o $end
$var wire 1 6 count[0]~0_combout $end
$var wire 1 7 Add0~0_combout $end
$var wire 1 8 process_0~0_combout $end
$var wire 1 9 clock~inputclkctrl_outclk $end
$var wire 1 : Add0~1 $end
$var wire 1 ; Add0~2_combout $end
$var wire 1 < Add0~3 $end
$var wire 1 = Add0~4_combout $end
$var wire 1 > Add0~5 $end
$var wire 1 ? Add0~6_combout $end
$var wire 1 @ count [4] $end
$var wire 1 A count [3] $end
$var wire 1 B count [2] $end
$var wire 1 C count [1] $end
$var wire 1 D count [0] $end
$upscope $end
$upscope $end
$enddefinitions $end
#0
$dumpvars
0!
0"
x'
x&
x%
x$
x#
x(
0)
1*
x+
1,
1-
1.
x/
x0
x1
x2
x3
04
05
x6
x7
x8
x9
x:
x;
x<
x=
x>
x?
zD
xC
xB
xA
x@
$end
#145
09
#881
08
#25000
1!
0(
#25775
15
#25938
19
#50000
0!
1(
#50936
05
#51081
09
#75000
1!
0(
#75775
15
#75938
19
#100000
0!
1(
#100936
05
#101081
09
#125000
1!
0(
#125775
15
#125938
19
#150000
0!
1(
#150936
05
#151081
09
#175000
1!
0(
#175775
15
#175938
19
#200000
0!
1(
#200936
05
#201081
09
#225000
1!
0(
#225775
15
#225938
19
#250000
0!
1(
#250936
05
#251081
09
#275000
1!
0(
#275775
15
#275938
19
#300000
0!
1(
#300936
05
#301081
09
#325000
1!
0(
#325775
15
#325938
19
#350000
0!
1(
#350936
05
#351081
09
#375000
1!
0(
#375775
15
#375938
19
#400000
0!
1(
#400936
05
#401081
09
#425000
1!
0(
#425775
15
#425938
19
#450000
0!
1(
#450936
05
#451081
09
#475000
1!
0(
#475775
15
#475938
19
#500000
0!
1(
#500936
05
#501081
09
#525000
1!
0(
#525775
15
#525938
19
#550000
0!
1(
#550936
05
#551081
09
#575000
1!
0(
#575775
15
#575938
19
#600000
0!
1(
#600936
05
#601081
09
#625000
1!
0(
#625775
15
#625938
19
#650000
0!
1(
#650936
05
#651081
09
#675000
1!
0(
#675775
15
#675938
19
#700000
0!
1(
#700936
05
#701081
09
#725000
1!
0(
#725775
15
#725938
19
#750000
0!
1(
#750936
05
#751081
09
#760000
1"
0(
#760735
14
#775000
1!
1(
#775775
15
#775938
19
#776219
06
#776651
18
#776799
0:
#776857
1<
#776915
0>
#777406
0C
#777408
0A
#777412
0@
#777413
0B
#778061
0=
#778064
0;
0?
#778172
07
#779065
0/
0'
#780090
01
0%
#780240
03
0#
#780251
00
0&
#780292
02
0$
#800000
0!
0(
#800936
05
#801081
09
#801817
08
#825000
1!
1(
#825775
15
#825938
19
#826651
18
#830000
0"
0(
#830896
04
#834096
16
#834097
08
#834663
17
#834871
06
#835502
07
#835511
1C
#835660
16
#836329
1:
#836351
0C
#836435
06
#836784
1;
#837015
0:
#837201
1B
#837224
16
#837791
17
#837999
06
#838630
07
#838639
1C
#838788
16
#839457
1:
#839479
0C
#839515
0<
#839563
06
#839894
0;
#839898
11
1%
#839970
1=
#840143
0:
#840201
1<
#840274
1A
#840346
0B
#840352
16
#840598
1;
#840919
17
#840997
0;
#841015
1B
#841127
06
#841449
0B
#841605
1;
#841758
07
#841767
1C
#841916
16
#842022
1B
#842100
0;
#842552
0B
#842585
1:
#842607
0C
#842643
0<
#842691
06
#842701
1>
#843080
0=
#843140
12
1$
#843156
1?
#843191
1;
#843271
0:
1<
#843329
0>
#843399
0A
#843462
1@
#843480
16
#843608
1B
#843708
0;
#844047
17
#844160
0B
#844198
1;
#844255
06
#844615
1B
#844811
0;
#844886
07
#844895
1C
#845044
16
#845205
1;
#845263
0B
#845622
1B
#845713
1:
#845735
0C
#845819
06
#846171
0<
#846224
0;
#846283
02
0$
#846294
13
1#
#846399
0:
#846457
1<
#846608
16
#846676
0B
#846854
1;
#847175
17
#847271
1B
#847327
0;
#847383
06
#847779
0B
#847861
1;
#848014
07
#848023
1C
#848172
16
#848278
1B
#848430
0;
#848841
1:
#848863
0C
#848882
0B
#848899
0<
#848947
06
#849354
1=
#849521
1;
#849527
0:
#849601
1<
#849658
1A
#849736
16
#849938
1B
#849964
0;
#850000
0!
1(
#850303
17
#850416
0B
#850511
06
#850528
1;
#850936
05
#850945
1B
#851067
0;
#851081
09
#851142
07
#851151
1C
#851519
0B
#851535
1;
#851856
17
#851952
1B
#851991
0C
#852170
0;
#852524
12
1$
#852542
1;
#852757
07
#875000
1!
0(
#875775
15
#875938
19
#876229
16
#876796
17
#877004
06
#877635
07
#877644
1C
#877793
16
#878462
1:
#878484
0C
#878520
0<
#878568
06
#878578
1>
#878899
0;
#878957
0=
#879015
0?
#879148
0:
#879206
1<
#879264
0>
#879276
0A
#879336
0@
#879351
0B
#879357
16
#879603
1;
#879924
17
#880002
0;
#880020
1B
#880132
06
#880454
0B
#880610
1;
#880763
07
#880772
1C
#880921
16
#881027
1B
#881105
0;
#881557
0B
#881590
1:
#881612
0C
#881648
0<
#881696
06
#882103
1=
#882160
02
0$
#882164
03
0#
#882196
1;
#882276
0:
1<
#882407
1A
#882485
16
#882613
1B
#882713
0;
#883052
17
#883165
0B
#883203
1;
#883260
06
#883620
1B
#883816
0;
#883891
07
#883900
1C
#884049
16
#884210
1;
#884268
0B
#884627
1B
#884718
1:
#884740
0C
#884824
06
#885176
0<
#885229
0;
#885234
1>
#885273
12
1$
#885404
0:
#885462
1<
#885520
0>
#885613
16
#885681
0B
#885859
1;
#886180
17
#886276
1B
#886332
0;
#886388
06
#886784
0B
#886866
1;
#887019
07
#887028
1C
#887177
16
#887283
1B
#887435
0;
#887846
1:
#887868
0C
#887887
0B
#887904
0<
#887952
06
#887962
1>
#888341
0=
#888417
1?
#888526
1;
#888532
0:
#888606
1<
#888660
0A
#888664
0>
#888723
1@
#888741
16
#888943
1B
#888969
0;
#889308
17
#889421
0B
#889516
06
#889533
1;
#889950
1B
#890072
0;
#890147
07
#890156
1C
#890305
16
#890524
0B
#890540
1;
#890957
1B
#890974
1:
#890996
0C
#891080
06
#891506
0<
#891544
02
0$
#891555
13
1#
#891559
0;
#891660
0:
#891718
1<
#891869
16
#892011
0B
#892115
1;
#892436
17
#892532
1B
#892644
06
#892662
0;
#893114
0B
#893122
1;
#893275
07
#893284
1C
#893433
16
#893539
1B
#893765
0;
#894102
1:
#894124
0C
#894160
0<
#894208
06
#894217
0B
#894615
1=
#894788
0:
#894919
1A
#894936
1<
#894997
16
#895564
17
#895772
06
#896403
07
#896412
1C
#896561
16
#896894
01
0%
#897230
1:
#897252
0C
#897336
06
#897685
1;
#897785
12
1$
#897916
0:
#898102
1B
#898125
16
#898692
17
#898900
06
#899531
07
#899540
1C
#899689
16
#900000
0!
1(
#900358
1:
#900380
0C
#900416
0<
#900464
06
#900474
1>
#900795
0;
#900799
11
1%
#900853
0=
#900911
0?
#900936
05
#901044
0:
#901081
09
#901102
1<
#901160
0>
#901172
0A
#901232
0@
#901247
0B
#901253
16
#901393
06
#901499
1;
#901898
0;
#901916
1B
#902350
0B
#902506
1;
#902560
1B
#904056
02
0$
#904060
03
0#
#925000
1!
0(
#925775
15
#925938
19
#926229
16
#926796
17
#927004
06
#927635
07
#927644
1C
#927793
16
#928462
1:
#928484
0C
#928520
0<
#928568
06
#928899
0;
#928975
1=
#929148
0:
#929206
1<
#929279
1A
#929351
0B
#929357
16
#929603
1;
#929924
17
#930002
0;
#930020
1B
#930132
06
#930454
0B
#930610
1;
#930763
07
#930772
1C
#930921
16
#931027
1B
#931105
0;
#931557
0B
#931590
1:
#931612
0C
#931648
0<
#931696
06
#931706
1>
#932085
0=
#932145
12
1$
#932161
1?
#932196
1;
#932276
0:
1<
#932334
0>
#932404
0A
#932467
1@
#932485
16
#932613
1B
#932713
0;
#933052
17
#933165
0B
#933203
1;
#933260
06
#933620
1B
#933816
0;
#933891
07
#933900
1C
#934049
16
#934210
1;
#934268
0B
#934627
1B
#934718
1:
#934740
0C
#934824
06
#935176
0<
#935229
0;
#935288
02
0$
#935299
13
1#
#935404
0:
#935462
1<
#935613
16
#935681
0B
#935859
1;
#936180
17
#936276
1B
#936332
0;
#936388
06
#936784
0B
#936866
1;
#937019
07
#937028
1C
#937177
16
#937283
1B
#937435
0;
#937846
1:
#937868
0C
#937887
0B
#937904
0<
#937952
06
#938359
1=
#938526
1;
#938532
0:
#938606
1<
#938663
1A
#938741
16
#938943
1B
#938969
0;
#939308
17
#939421
0B
#939516
06
#939533
1;
#939950
1B
#940072
0;
#940147
07
#940156
1C
#940305
16
#940524
0B
#940540
1;
#940957
1B
#940974
1:
#940996
0C
#941080
06
#941506
0<
#941529
12
1$
#941559
0;
#941564
1>
#941660
0:
#941718
1<
#941776
0>
#941869
16
#942011
0B
#942115
1;
#942436
17
#942532
1B
#942644
06
#942662
0;
#943114
0B
#943122
1;
#943275
07
#943284
1C
#943433
16
#943539
1B
#943765
0;
#944102
1:
#944124
0C
#944160
0<
#944208
06
#944217
0B
#944218
1>
#944597
0=
#944655
0?
#944788
0:
#944916
0A
#944936
1<
#944976
0@
#944994
0>
#944997
16
#945564
17
#945772
06
#946403
07
#946412
1C
#946561
16
#946894
01
0%
#947230
1:
#947252
0C
#947336
06
#947685
1;
#947800
02
0$
#947804
03
0#
#947916
0:
#948102
1B
#948125
16
#948692
17
#948900
06
#949531
07
#949540
1C
#949689
16
#950000
0!
1(
#950358
1:
#950380
0C
#950416
0<
#950464
06
#950795
0;
#950799
11
1%
#950871
1=
#950936
05
#951044
0:
#951081
09
#951102
1<
#951175
1A
#951247
0B
#951253
16
#951393
06
#951499
1;
#951898
0;
#951916
1B
#952350
0B
#952506
1;
#952560
1B
#954041
12
1$
#975000
1!
0(
#975775
15
#975938
19
#976229
16
#976796
17
#977004
06
#977635
07
#977644
1C
#977793
16
#978462
1:
#978484
0C
#978520
0<
#978568
06
#978578
1>
#978899
0;
#978957
0=
#979033
1?
#979148
0:
#979206
1<
#979264
0>
#979276
0A
#979339
1@
#979351
0B
#979357
16
#979603
1;
#979924
17
#980002
0;
#980020
1B
#980132
06
#980454
0B
#980610
1;
#980763
07
#980772
1C
#980921
16
#981027
1B
#981105
0;
#981557
0B
#981590
1:
#981612
0C
#981648
0<
#981696
06
#982103
1=
#982160
02
0$
#982171
13
1#
#982196
1;
#982276
0:
1<
#982407
1A
#982485
16
#982613
1B
#982713
0;
#983052
17
#983165
0B
#983203
1;
#983260
06
#983620
1B
#983816
0;
#983891
07
#983900
1C
#984049
16
#984210
1;
#984268
0B
#984627
1B
#984718
1:
#984740
0C
#984824
06
#985176
0<
#985229
0;
#985234
1>
#985273
12
1$
#985404
0:
#985462
1<
#985520
0>
#985613
16
#985681
0B
#985859
1;
#986180
17
#986276
1B
#986332
0;
#986388
06
#986784
0B
#986866
1;
#987019
07
#987028
1C
#987177
16
#987283
1B
#987435
0;
#987846
1:
#987868
0C
#987887
0B
#987904
0<
#987952
06
#987962
1>
#988341
0=
#988399
0?
#988526
1;
#988532
0:
#988606
1<
#988660
0A
#988664
0>
#988720
0@
#988741
16
#988943
1B
#988969
0;
#989308
17
#989421
0B
#989516
06
#989533
1;
#989950
1B
#990072
0;
#990147
07
#990156
1C
#990305
16
#990524
0B
#990540
1;
#990957
1B
#990974
1:
#990996
0C
#991080
06
#991506
0<
#991544
02
0$
#991548
03
0#
#991559
0;
#991660
0:
#991718
1<
#991869
16
#992011
0B
#992115
1;
#992436
17
#992532
1B
#992644
06
#992662
0;
#993114
0B
#993122
1;
#993275
07
#993284
1C
#993433
16
#993539
1B
#993765
0;
#994102
1:
#994124
0C
#994160
0<
#994208
06
#994217
0B
#994615
1=
#994788
0:
#994919
1A
#994936
1<
#994997
16
#995564
17
#995772
06
#996403
07
#996412
1C
#996561
16
#996894
01
0%
#997230
1:
#997252
0C
#997336
06
#997685
1;
#997785
12
1$
#997916
0:
#998102
1B
#998125
16
#998692
17
#998900
06
#999531
07
#999540
1C
#999689
16
