av3/semaphore/simulation/qsim/semaphore.msim.vcd
$comment
	File created using the following command:
		vcd file semaphore.msim.vcd -direction
$end
$date
	Tue Dec 06 19:44:11 2022
$end
$version
	ModelSim Version 10.1d
$end
$timescale
	1ps
$end
$scope module system_vlg_vec_tst $end
$var reg 1 ! clk_1s $end
$var reg 1 " clock $end
$var reg 1 # reset $end
$var wire 1 $ counter [4] $end
$var wire 1 % counter [3] $end
$var wire 1 & counter [2] $end
$var wire 1 ' counter [1] $end
$var wire 1 ( counter [0] $end
$var wire 1 ) green [2] $end
$var wire 1 * green [1] $end
$var wire 1 + green [0] $end
$var wire 1 , red [2] $end
$var wire 1 - red [1] $end
$var wire 1 . red [0] $end
$var wire 1 / rst_counter $end
$var wire 1 0 yellow [2] $end
$var wire 1 1 yellow [1] $end
$var wire 1 2 yellow [0] $end
$var wire 1 3 sampler $end
$scope module i1 $end
$var wire 1 4 gnd $end
$var wire 1 5 vcc $end
$var wire 1 6 unknown $end
$var tri1 1 7 devclrn $end
$var tri1 1 8 devpor $end
$var tri1 1 9 devoe $end
$var wire 1 : rst_counter~output_o $end
$var wire 1 ; counter[4]~output_o $end
$var wire 1 < counter[3]~output_o $end
$var wire 1 = counter[2]~output_o $end
$var wire 1 > counter[1]~output_o $end
$var wire 1 ? counter[0]~output_o $end
$var wire 1 @ green[2]~output_o $end
$var wire 1 A green[1]~output_o $end
$var wire 1 B green[0]~output_o $end
$var wire 1 C red[2]~output_o $end
$var wire 1 D red[1]~output_o $end
$var wire 1 E red[0]~output_o $end
$var wire 1 F yellow[2]~output_o $end
$var wire 1 G yellow[1]~output_o $end
$var wire 1 H yellow[0]~output_o $end
$var wire 1 I clk_1s~input_o $end
$var wire 1 J inst2|Add0~0_combout $end
$var wire 1 K inst2|Add0~1 $end
$var wire 1 L inst2|Add0~2_combout $end
$var wire 1 M clock~input_o $end
$var wire 1 N inst|Equal4~0_combout $end
$var wire 1 O inst|Selector2~0_combout $end
$var wire 1 P inst|Equal0~0_combout $end
$var wire 1 Q inst|Selector0~0_combout $end
$var wire 1 R inst|Selector4~0_combout $end
$var wire 1 S inst|Equal2~0_combout $end
$var wire 1 T inst|Equal3~0_combout $end
$var wire 1 U inst|Selector4~1_combout $end
$var wire 1 V reset~input_o $end
$var wire 1 W inst|fstate.state2~q $end
$var wire 1 X inst|Selector0~1_combout $end
$var wire 1 Y inst|fstate.state3~q $end
$var wire 1 Z inst|Selector1~0_combout $end
$var wire 1 [ inst|fstate.state4~q $end
$var wire 1 \ inst|Selector3~0_combout $end
$var wire 1 ] inst|Equal2~1_combout $end
$var wire 1 ^ inst|Selector3~1_combout $end
$var wire 1 _ inst|fstate.state5~q $end
$var wire 1 ` inst|Selector2~1_combout $end
$var wire 1 a inst|fstate.state6~q $end
$var wire 1 b inst|Selector5~0_combout $end
$var wire 1 c inst|fstate.state1~q $end
$var wire 1 d inst2|count[1]~2_combout $end
$var wire 1 e inst2|Add0~3 $end
$var wire 1 f inst2|Add0~4_combout $end
$var wire 1 g inst2|count[2]~1_combout $end
$var wire 1 h inst2|Add0~5 $end
$var wire 1 i inst2|Add0~6_combout $end
$var wire 1 j inst2|Add0~7 $end
$var wire 1 k inst2|Add0~8_combout $end
$var wire 1 l inst2|count[4]~0_combout $end
$var wire 1 m inst|reset_counter~0_combout $end
$var wire 1 n inst|red~0_combout $end
$var wire 1 o inst|red~1_combout $end
$var wire 1 p inst|red~2_combout $end
$var wire 1 q inst2|count [4] $end
$var wire 1 r inst2|count [3] $end
$var wire 1 s inst2|count [2] $end
$var wire 1 t inst2|count [1] $end
$var wire 1 u inst2|count [0] $end
$upscope $end
$upscope $end
$enddefinitions $end
#0
$dumpvars
0!
0"
1#
0(
0'
0&
0%
0$
0+
0*
1)
1.
1-
0,
0/
02
01
00
x3
04
15
x6
17
18
19
0:
0;
0<
0=
0>
0?
1@
0A
0B
0C
1D
1E
0F
0G
0H
0I
1J
0K
0L
0M
0N
0O
0P
0Q
0R
0S
0T
0U
1V
0W
0X
0Y
0Z
0[
0\
0]
0^
0_
0`
0a
0b
0c
0d
1e
0f
0g
0h
0i
1j
0k
0l
0m
1n
0o
0p
0u
0t
0s
0r
0q
$end
#2500
1"
1M
03
#5000
0"
0M
13
#7500
1"
1M
03
#10000
1!
0#
0"
1I
0V
0M
13
1u
1S
1K
0J
1?
1(
1L
1d
#12500
1"
1M
03
#15000
0"
0M
13
#17500
1"
1M
03
#20000
0!
0"
0I
0M
13
#22500
1"
1M
03
#25000
0"
0M
13
#27500
1"
1M
03
#30000
1!
0"
1I
0M
13
1t
0u
0e
0L
0S
0K
1J
1>
0?
1'
0(
1f
0d
1e
1L
1g
0f
1d
0g
#32500
1"
1M
03
#35000
0"
0M
13
#37500
1"
1M
03
#40000
0!
0"
0I
0M
13
#42500
1"
1M
03
#45000
0"
0M
13
#47500
1"
1M
03
#50000
1!
0"
1I
0M
13
1u
1S
1K
0J
1?
1(
0e
0L
1f
0d
1g
#52500
1"
1M
03
#55000
0"
0M
13
#57500
1"
1M
03
#60000
0!
0"
0I
0M
13
#62500
1"
1M
03
#65000
0"
0M
13
#67500
1"
1M
03
#70000
1!
0"
1I
0M
13
1s
0t
0u
1h
0f
1e
1L
0S
0K
1J
1=
0>
0?
1&
0'
0(
1i
0g
0h
1f
1d
0L
0i
1g
0d
#72500
1"
1M
03
#75000
0"
0M
13
#77500
1"
1M
03
#80000
0!
0"
0I
0M
13
#82500
1"
1M
03
#85000
0"
0M
13
#87500
1"
1M
03
#90000
1!
0"
1I
0M
13
1u
1S
1N
1K
0J
1?
1(
1b
1R
1L
1U
1d
#92500
1"
1M
03
1c
1W
0R
0@
1F
0)
10
#95000
0"
0M
13
#97500
1"
1M
03
#100000
0!
0"
0I
0M
13
#102500
1"
1M
03
#105000
0"
0M
13
#107500
1"
1M
03
#110000
1!
0"
1I
0M
13
1t
0u
1T
0N
0e
0L
0S
0K
1J
1>
0?
1'
0(
1X
0U
0d
1h
0f
0T
1e
1L
1i
0g
0X
1U
0h
1f
1d
0i
1g
#112500
1"
1M
03
#115000
0"
0M
13
#117500
1"
1M
03
#120000
0!
0"
0I
0M
13
#122500
1"
1M
03
#125000
0"
0M
13
#127500
1"
1M
03
#130000
1!
0"
1I
0M
13
1u
1S
1K
0J
1?
1(
1T
0e
0L
1X
0U
1h
0f
0d
1i
0g
#132500
1"
1M
03
1Y
0W
1o
1Q
0n
0X
1A
0F
1*
00
1X
0D
1C
0-
1,
#135000
0"
0M
13
#137500
1"
1M
03
#140000
0!
0"
0I
0M
13
#142500
1"
1M
03
#145000
0"
0M
13
#147500
1"
1M
03
#150000
1!
0"
1I
0M
13
1r
0s
0t
0u
0j
0i
0S
0h
1f
0T
1e
1L
0K
1J
1<
0=
0>
0?
1%
0&
0'
0(
1k
1j
1i
1g
0f
1d
0L
1l
0k
0g
0d
0l
#152500
1"
1M
03
#155000
0"
0M
13
#157500
1"
1M
03
#160000
0!
0"
0I
0M
13
#162500
1"
1M
03
#165000
0"
0M
13
#167500
1"
1M
03
#170000
1!
0"
1I
0M
13
1u
1K
0J
1?
1(
1L
1d
#172500
1"
1M
03
#175000
0"
0M
13
#177500
1"
1M
03
#180000
0!
0"
0I
0M
13
#182500
1"
1M
03
#185000
0"
0M
13
#187500
1"
1M
03
#190000
1!
0"
1I
0M
13
1t
0u
0e
0L
0K
1J
1>
0?
1'
0(
1f
0d
1e
1L
1g
0f
1d
0g
#192500
1"
1M
03
#195000
0"
0M
13
#197500
1"
1M
03
#200000
0!
0"
0I
0M
13
#202500
1"
1M
03
#205000
0"
0M
13
#207500
1"
1M
03
#210000
1!
0"
1I
0M
13
1u
1K
0J
1?
1(
0e
0L
1f
0d
1g
#212500
1"
1M
03
#215000
0"
0M
13
#217500
1"
1M
03
#220000
0!
0"
0I
0M
13
#222500
1"
1M
03
#225000
0"
0M
13
#227500
1"
1M
03
#230000
1!
0"
1I
0M
13
1s
0t
0u
1h
0f
1P
1e
1L
0K
1J
1=
0>
0?
1&
0'
0(
0j
0i
0g
1Z
0Q
0h
1f
1d
0L
1k
0X
1j
1i
1g
0d
1l
0k
0l
#232500
1"
1M
03
1[
0Y
1G
0A
11
0*
#235000
0"
0M
13
#237500
1"
1M
03
#240000
0!
0"
0I
0M
13
#242500
1"
1M
03
#245000
0"
0M
13
#247500
1"
1M
03
#250000
1!
0"
1I
0M
13
1u
0P
1K
0J
1?
1(
1L
1d
#252500
1"
1M
03
#255000
0"
0M
13
#257500
1"
1M
03
#260000
0!
0"
0I
0M
13
#262500
1"
1M
03
#265000
0"
0M
13
#267500
1"
1M
03
#270000
1!
0"
1I
0M
13
1t
0u
0e
0L
1P
0K
1J
1>
0?
1'
0(
1h
0f
0d
1\
0Z
1e
1L
0j
0i
0g
1^
0h
1f
1d
1k
1j
1i
1g
1l
0k
0l
#272500
1"
1M
03
1_
0[
1p
0o
0\
1B
0G
1+
01
0E
1D
0.
1-
#275000
0"
0M
13
#277500
1"
1M
03
#280000
0!
0"
0I
0M
13
#282500
1"
1M
03
#285000
0"
0M
13
#287500
1"
1M
03
#290000
1!
0"
1I
0M
13
1u
0P
1K
0J
1?
1(
0e
0L
1h
0f
0d
0j
0i
0g
1k
1l
#292500
1"
1M
03
#295000
0"
0M
13
#297500
1"
1M
03
#300000
0!
0"
0I
0M
13
#302500
1"
1M
03
#305000
0"
0M
13
#307500
1"
1M
03
#310000
1!
0"
1I
0M
13
1q
0r
0s
0t
0u
0k
1j
1i
0h
1f
1e
1L
0K
1J
1;
0<
0=
0>
0?
1$
0%
0&
0'
0(
0l
1k
0i
1g
0f
1d
0L
1l
0g
0d
#312500
1"
1M
03
#315000
0"
0M
13
#317500
1"
1M
03
#320000
0!
0"
0I
0M
13
#322500
1"
1M
03
#325000
0"
0M
13
#327500
1"
1M
03
#330000
1!
0"
1I
0M
13
1u
1S
1K
0J
1?
1(
1L
1d
#332500
1"
1M
03
#335000
0"
0M
13
#337500
1"
1M
03
#340000
0!
0"
0I
0M
13
#342500
1"
1M
03
#345000
0"
0M
13
#347500
1"
1M
03
#350000
1!
0"
1I
0M
13
1t
0u
1]
0e
0L
0S
0K
1J
1>
0?
1'
0(
1`
0^
1f
0d
0]
1e
1L
1g
0`
1^
0f
1d
0g
#352500
1"
1M
03
#355000
0"
0M
13
#357500
1"
1M
03
#360000
0!
0"
0I
0M
13
#362500
1"
1M
03
#365000
0"
0M
13
#367500
1"
1M
03
#370000
1!
0"
1I
0M
13
1u
1S
1K
0J
1?
1(
1]
0e
0L
1`
0^
1f
0d
1g
#372500
1"
1M
03
1a
0_
1O
0`
1H
0B
12
0+
1`
#375000
0"
0M
13
#377500
1"
1M
03
#380000
0!
0"
0I
0M
13
#382500
1"
1M
03
#385000
0"
0M
13
#387500
1"
1M
03
#390000
1!
0"
1I
0M
13
1s
0t
0u
1h
0f
0]
1e
1L
0S
0K
1J
1=
0>
0?
1&
0'
0(
1i
0g
0h
1f
1d
0L
0i
1g
0d
#392500
1"
1M
03
#395000
0"
0M
13
#397500
1"
1M
03
#400000
0!
0"
0I
0M
13
#402500
1"
1M
03
#405000
0"
0M
13
#407500
1"
1M
03
#410000
1!
0"
1I
0M
13
1u
1S
1N
1K
0J
1?
1(
0b
0O
1L
0`
1d
#412500
1"
1M
03
0c
0a
1n
0l
0g
0d
0p
1@
0H
1)
02
1m
0C
1E
1:
0,
1.
1/
#415000
0"
0M
13
#417500
1"
1M
03
#420000
0!
0"
0I
0M
13
#422500
1"
1M
03
#425000
0"
0M
13
#427500
1"
1M
03
#430000
1!
0"
1I
0M
13
0q
0s
0u
1l
0k
1g
1d
1b
1R
0f
0N
0S
0K
1J
0;
0=
0?
0$
0&
0(
0m
0l
1U
0g
0b
0R
0L
0:
0/
0U
0d
#432500
1"
1M
03
#435000
0"
0M
13
#437500
1"
1M
03
#440000
0!
0"
0I
0M
13
#442500
1"
1M
03
#445000
0"
0M
13
#447500
1"
1M
03
#450000
1!
0"
1I
0M
13
1u
1S
1K
0J
1?
1(
1L
1d
#452500
1"
1M
03
#455000
0"
0M
13
#457500
1"
1M
03
#460000
0!
0"
0I
0M
13
#462500
1"
1M
03
#465000
0"
0M
13
#467500
1"
1M
03
#470000
1!
0"
1I
0M
13
1t
0u
0e
0L
0S
0K
1J
1>
0?
1'
0(
1f
0d
1e
1L
1g
0f
1d
0g
#472500
1"
1M
03
#475000
0"
0M
13
#477500
1"
1M
03
#480000
0!
0"
0I
0M
13
#482500
1"
1M
03
#485000
0"
0M
13
#487500
1"
1M
03
#490000
1!
0"
1I
0M
13
1u
1S
1K
0J
1?
1(
0e
0L
1f
0d
1g
#492500
1"
1M
03
#495000
0"
0M
13
#497500
1"
1M
03
#500000
0!
0"
0I
0M
13
#502500
1"
1M
03
#505000
0"
0M
13
#507500
1"
1M
03
#510000
1!
0"
1I
0M
13
1s
0t
0u
1h
0f
1e
1L
0S
0K
1J
1=
0>
0?
1&
0'
0(
1i
0g
0h
1f
1d
0L
0i
1g
0d
#512500
1"
1M
03
#515000
0"
0M
13
#517500
1"
1M
03
#520000
0!
0"
0I
0M
13
#522500
1"
1M
03
#525000
0"
0M
13
#527500
1"
1M
03
#530000
1!
0"
1I
0M
13
1u
1S
1N
1K
0J
1?
1(
1b
1R
1L
1U
1d
#532500
1"
1M
03
1c
1W
0R
0@
1F
0)
10
#535000
0"
0M
13
#537500
1"
1M
03
#540000
0!
0"
0I
0M
13
#542500
1"
1M
03
#545000
0"
0M
13
#547500
1"
1M
03
#550000
1!
0"
1I
0M
13
1t
0u
1T
0N
0e
0L
0S
0K
1J
1>
0?
1'
0(
1X
0U
0d
1h
0f
0T
1e
1L
1i
0g
0X
1U
0h
1f
1d
0i
1g
#552500
1"
1M
03
#555000
0"
0M
13
#557500
1"
1M
03
#560000
0!
0"
0I
0M
13
#562500
1"
1M
03
#565000
0"
0M
13
#567500
1"
1M
03
#570000
1!
0"
1I
0M
13
1u
1S
1K
0J
1?
1(
1T
0e
0L
1X
0U
1h
0f
0d
1i
0g
#572500
1"
1M
03
1Y
0W
1o
1Q
0n
0X
1A
0F
1*
00
1X
0D
1C
0-
1,
#575000
0"
0M
13
#577500
1"
1M
03
#580000
0!
0"
0I
0M
13
#582500
1"
1M
03
#585000
0"
0M
13
#587500
1"
1M
03
#590000
1!
0"
1I
0M
13
1r
0s
0t
0u
0j
0i
0S
0h
1f
0T
1e
1L
0K
1J
1<
0=
0>
0?
1%
0&
0'
0(
1k
1j
1i
1g
0f
1d
0L
1l
0k
0g
0d
0l
#592500
1"
1M
03
#595000
0"
0M
13
#597500
1"
1M
03
#600000
0!
0"
0I
0M
13
#602500
1"
1M
03
#605000
0"
0M
13
#607500
1"
1M
03
#610000
1!
0"
1I
0M
13
1u
1K
0J
1?
1(
1L
1d
#612500
1"
1M
03
#615000
0"
0M
13
#617500
1"
1M
03
#620000
0!
0"
0I
0M
13
#622500
1"
1M
03
#625000
0"
0M
13
#627500
1"
1M
03
#630000
1!
0"
1I
0M
13
1t
0u
0e
0L
0K
1J
1>
0?
1'
0(
1f
0d
1e
1L
1g
0f
1d
0g
#632500
1"
1M
03
#635000
0"
0M
13
#637500
1"
1M
03
#640000
0!
0"
0I
0M
13
#642500
1"
1M
03
#645000
0"
0M
13
#647500
1"
1M
03
#650000
1!
0"
1I
0M
13
1u
1K
0J
1?
1(
0e
0L
1f
0d
1g
#652500
1"
1M
03
#655000
0"
0M
13
#657500
1"
1M
03
#660000
0!
0"
0I
0M
13
#662500
1"
1M
03
#665000
0"
0M
13
#667500
1"
1M
03
#670000
1!
0"
1I
0M
13
1s
0t
0u
1h
0f
1P
1e
1L
0K
1J
1=
0>
0?
1&
0'
0(
0j
0i
0g
1Z
0Q
0h
1f
1d
0L
1k
0X
1j
1i
1g
0d
1l
0k
0l
#672500
1"
1M
03
1[
0Y
1G
0A
11
0*
#675000
0"
0M
13
#677500
1"
1M
03
#680000
0!
0"
0I
0M
13
#682500
1"
1M
03
#685000
0"
0M
13
#687500
1"
1M
03
#690000
1!
0"
1I
0M
13
1u
0P
1K
0J
1?
1(
1L
1d
#692500
1"
1M
03
#695000
0"
0M
13
#697500
1"
1M
03
#700000
0!
0"
0I
0M
13
#702500
1"
1M
03
#705000
0"
0M
13
#707500
1"
1M
03
#710000
1!
0"
1I
0M
13
1t
0u
0e
0L
1P
0K
1J
1>
0?
1'
0(
1h
0f
0d
1\
0Z
1e
1L
0j
0i
0g
1^
0h
1f
1d
1k
1j
1i
1g
1l
0k
0l
#712500
1"
1M
03
1_
0[
1p
0o
0\
1B
0G
1+
01
0E
1D
0.
1-
#715000
0"
0M
13
#717500
1"
1M
03
#720000
0!
0"
0I
0M
13
#722500
1"
1M
03
#725000
0"
0M
13
#727500
1"
1M
03
#730000
1!
0"
1I
0M
13
1u
0P
1K
0J
1?
1(
0e
0L
1h
0f
0d
0j
0i
0g
1k
1l
#732500
1"
1M
03
#735000
0"
0M
13
#737500
1"
1M
03
#740000
0!
0"
0I
0M
13
#742500
1"
1M
03
#745000
0"
0M
13
#747500
1"
1M
03
#750000
1!
0"
1I
0M
13
1q
0r
0s
0t
0u
0k
1j
1i
0h
1f
1e
1L
0K
1J
1;
0<
0=
0>
0?
1$
0%
0&
0'
0(
0l
1k
0i
1g
0f
1d
0L
1l
0g
0d
#752500
1"
1M
03
#755000
0"
0M
13
#757500
1"
1M
03
#760000
0!
0"
0I
0M
13
#762500
1"
1M
03
#765000
0"
0M
13
#767500
1"
1M
03
#770000
1!
0"
1I
0M
13
1u
1S
1K
0J
1?
1(
1L
1d
#772500
1"
1M
03
#775000
0"
0M
13
#777500
1"
1M
03
#780000
0!
0"
0I
0M
13
#782500
1"
1M
03
#785000
0"
0M
13
#787500
1"
1M
03
#790000
1!
0"
1I
0M
13
1t
0u
1]
0e
0L
0S
0K
1J
1>
0?
1'
0(
1`
0^
1f
0d
0]
1e
1L
1g
0`
1^
0f
1d
0g
#792500
1"
1M
03
#795000
0"
0M
13
#797500
1"
1M
03
#800000
0!
0"
0I
0M
13
#802500
1"
1M
03
#805000
0"
0M
13
#807500
1"
1M
03
#810000
1!
0"
1I
0M
13
1u
1S
1K
0J
1?
1(
1]
0e
0L
1`
0^
1f
0d
1g
#812500
1"
1M
03
1a
0_
1O
0`
1H
0B
12
0+
1`
#815000
0"
0M
13
#817500
1"
1M
03
#820000
0!
0"
0I
0M
13
#822500
1"
1M
03
#825000
0"
0M
13
#827500
1"
1M
03
#830000
1!
0"
1I
0M
13
1s
0t
0u
1h
0f
0]
1e
1L
0S
0K
1J
1=
0>
0?
1&
0'
0(
1i
0g
0h
1f
1d
0L
0i
1g
0d
#832500
1"
1M
03
#835000
0"
0M
13
#837500
1"
1M
03
#840000
0!
0"
0I
0M
13
#842500
1"
1M
03
#845000
0"
0M
13
#847500
1"
1M
03
#850000
1!
0"
1I
0M
13
1u
1S
1N
1K
0J
1?
1(
0b
0O
1L
0`
1d
#852500
1"
1M
03
0c
0a
1n
0l
0g
0d
0p
1@
0H
1)
02
1m
0C
1E
1:
0,
1.
1/
#855000
0"
0M
13
#857500
1"
1M
03
#860000
0!
0"
0I
0M
13
#862500
1"
1M
03
#865000
0"
0M
13
#867500
1"
1M
03
#870000
1!
0"
1I
0M
13
0q
0s
0u
1l
0k
1g
1d
1b
1R
0f
0N
0S
0K
1J
0;
0=
0?
0$
0&
0(
0m
0l
1U
0g
0b
0R
0L
0:
0/
0U
0d
#872500
1"
1M
03
#875000
0"
0M
13
#877500
1"
1M
03
#880000
0!
0"
0I
0M
13
#882500
1"
1M
03
#885000
0"
0M
13
#887500
1"
1M
03
#890000
1!
0"
1I
0M
13
1u
1S
1K
0J
1?
1(
1L
1d
#892500
1"
1M
03
#895000
0"
0M
13
#897500
1"
1M
03
#900000
0!
0"
0I
0M
13
#902500
1"
1M
03
#905000
0"
0M
13
#907500
1"
1M
03
#910000
1!
0"
1I
0M
13
1t
0u
0e
0L
0S
0K
1J
1>
0?
1'
0(
1f
0d
1e
1L
1g
0f
1d
0g
#912500
1"
1M
03
#915000
0"
0M
13
#917500
1"
1M
03
#920000
0!
0"
0I
0M
13
#922500
1"
1M
03
#925000
0"
0M
13
#927500
1"
1M
03
#930000
1!
0"
1I
0M
13
1u
1S
1K
0J
1?
1(
0e
0L
1f
0d
1g
#932500
1"
1M
03
#935000
0"
0M
13
#937500
1"
1M
03
#940000
0!
0"
0I
0M
13
#942500
1"
1M
03
#945000
0"
0M
13
#947500
1"
1M
03
#950000
1!
0"
1I
0M
13
1s
0t
0u
1h
0f
1e
1L
0S
0K
1J
1=
0>
0?
1&
0'
0(
1i
0g
0h
1f
1d
0L
0i
1g
0d
#952500
1"
1M
03
#955000
0"
0M
13
#957500
1"
1M
03
#960000
0!
0"
0I
0M
13
#962500
1"
1M
03
#965000
0"
0M
13
#967500
1"
1M
03
#970000
1!
0"
1I
0M
13
1u
1S
1N
1K
0J
1?
1(
1b
1R
1L
1U
1d
#972500
1"
1M
03
1c
1W
0R
0@
1F
0)
10
#975000
0"
0M
13
#977500
1"
1M
03
#980000
0!
0"
0I
0M
13
#982500
1"
1M
03
#985000
0"
0M
13
#987500
1"
1M
03
#990000
1!
0"
1I
0M
13
1t
0u
1T
0N
0e
0L
0S
0K
1J
1>
0?
1'
0(
1X
0U
0d
1h
0f
0T
1e
1L
1i
0g
0X
1U
0h
1f
1d
0i
1g
#992500
1"
1M
03
#995000
0"
0M
13
#997500
1"
1M
03
