av2/function/simulation/qsim/function.msim.vcd
$comment
	File created using the following command:
		vcd file function.msim.vcd -direction
$end
$date
	Tue Sep 27 20:01:28 2022
$end
$version
	ModelSim Version 10.1d
$end
$timescale
	1ps
$end
$scope module funcoes_vlg_vec_tst $end
$var reg 4 ! a1 [3:0] $end
$var reg 4 " b1 [3:0] $end
$var reg 1 # clk_mult $end
$var reg 1 $ clk_soma $end
$var reg 1 % clk_subt $end
$var wire 1 & s1 [3] $end
$var wire 1 ' s1 [2] $end
$var wire 1 ( s1 [1] $end
$var wire 1 ) s1 [0] $end
$var wire 1 * sampler $end
$scope module i1 $end
$var wire 1 + gnd $end
$var wire 1 , vcc $end
$var wire 1 - unknown $end
$var tri1 1 . devclrn $end
$var tri1 1 / devpor $end
$var tri1 1 0 devoe $end
$var wire 1 1 s1[0]~output_o $end
$var wire 1 2 s1[1]~output_o $end
$var wire 1 3 s1[2]~output_o $end
$var wire 1 4 s1[3]~output_o $end
$var wire 1 5 b1[0]~input_o $end
$var wire 1 6 b1[1]~input_o $end
$var wire 1 7 a1[0]~input_o $end
$var wire 1 8 Mult0|auto_generated|op_3~0_combout $end
$var wire 1 9 clk_soma~input_o $end
$var wire 1 : Add0~0_combout $end
$var wire 1 ; Add0~2_cout $end
$var wire 1 < Add0~3_combout $end
$var wire 1 = clk_subt~input_o $end
$var wire 1 > Add0~5_combout $end
$var wire 1 ? clk_mult~input_o $end
$var wire 1 @ s1[3]~0_combout $end
$var wire 1 A s1[3]~0clkctrl_outclk $end
$var wire 1 B s1[0]$latch~combout $end
$var wire 1 C a1[1]~input_o $end
$var wire 1 D Add0~6_combout $end
$var wire 1 E Add0~4 $end
$var wire 1 F Add0~7_combout $end
$var wire 1 G Mult0|auto_generated|op_3~1 $end
$var wire 1 H Mult0|auto_generated|op_3~2_combout $end
$var wire 1 I Add0~9_combout $end
$var wire 1 J s1[1]$latch~combout $end
$var wire 1 K b1[2]~input_o $end
$var wire 1 L Add0~10_combout $end
$var wire 1 M a1[2]~input_o $end
$var wire 1 N Add0~8 $end
$var wire 1 O Add0~11_combout $end
$var wire 1 P b1[3]~input_o $end
$var wire 1 Q Mult0|auto_generated|cs1a[1]~0_combout $end
$var wire 1 R Mult0|auto_generated|op_1~0_combout $end
$var wire 1 S Mult0|auto_generated|op_3~3 $end
$var wire 1 T Mult0|auto_generated|op_3~4_combout $end
$var wire 1 U Add0~13_combout $end
$var wire 1 V s1[2]$latch~combout $end
$var wire 1 W a1[3]~input_o $end
$var wire 1 X Mult0|auto_generated|op_1~1 $end
$var wire 1 Y Mult0|auto_generated|op_1~2_combout $end
$var wire 1 Z Mult0|auto_generated|cs2a[1]~0_combout $end
$var wire 1 [ Mult0|auto_generated|op_3~5 $end
$var wire 1 \ Mult0|auto_generated|op_3~6_combout $end
$var wire 1 ] Add0~14_combout $end
$var wire 1 ^ Add0~12 $end
$var wire 1 _ Add0~15_combout $end
$var wire 1 ` Add0~17_combout $end
$var wire 1 a s1[3]$latch~combout $end
$var wire 1 b Mult0|auto_generated|le4a [5] $end
$var wire 1 c Mult0|auto_generated|le4a [4] $end
$var wire 1 d Mult0|auto_generated|le4a [3] $end
$var wire 1 e Mult0|auto_generated|le4a [2] $end
$var wire 1 f Mult0|auto_generated|le4a [1] $end
$var wire 1 g Mult0|auto_generated|le4a [0] $end
$var wire 1 h Mult0|auto_generated|le3a [5] $end
$var wire 1 i Mult0|auto_generated|le3a [4] $end
$var wire 1 j Mult0|auto_generated|le3a [3] $end
$var wire 1 k Mult0|auto_generated|le3a [2] $end
$var wire 1 l Mult0|auto_generated|le3a [1] $end
$var wire 1 m Mult0|auto_generated|le3a [0] $end
$upscope $end
$upscope $end
$enddefinitions $end
#0
$dumpvars
b0 !
b110 "
0#
0$
0%
x)
x(
x'
x&
x*
0+
1,
x-
1.
1/
10
x1
x2
x3
x4
05
16
07
08
09
0:
1;
0<
0=
0>
0?
0@
0A
xB
0C
1D
0E
1F
1G
0H
0I
xJ
1K
1L
0M
0N
0O
0P
1Q
0R
0S
0T
0U
xV
0W
1X
0Y
0Z
1[
0\
0]
1^
1_
0`
xa
1g
1f
ze
zd
zc
zb
1m
1l
1k
1j
zi
zh
$end
#10000
1#
1?
0*
1@
1A
0a
0V
0J
0B
04
03
02
01
0&
0'
0(
0)
#20000
0#
0?
1*
0@
0A
#25000
1$
19
0*
1`
1]
0L
1I
0D
1@
0;
1:
1A
0_
1O
1N
0F
1E
1a
1J
0`
1U
0^
0O
0I
0N
1F
14
12
1&
1(
1_
0U
1^
1O
1I
0a
1V
0J
1`
0_
1U
04
13
02
0&
1'
0(
0V
1J
0`
03
12
0'
1(
1a
1V
14
13
1&
1'
0a
04
0&
#30000
1#
1?
1*
#35000
1%
1=
0*
#40000
b10 !
b11 !
0#
17
1C
0?
1*
0f
0l
1<
0k
1N
0F
1\
1S
1H
1>
0X
1R
0^
0O
0I
1Y
1_
0U
1B
0J
0\
1`
11
02
1)
0(
0V
03
0'
1a
14
1&
#50000
0$
1#
09
1?
0*
0]
1L
1D
1;
0:
0_
1^
1O
0N
1F
0E
0`
1_
1U
0O
1I
1N
0F
1`
0U
1O
0I
0a
1V
1J
1U
04
13
12
0&
1'
1(
1a
0V
0J
14
03
02
1&
0'
0(
1V
13
1'
#60000
0%
0#
0=
0?
1*
0`
0U
1I
0@
0>
0A
#70000
1#
1?
0*
1@
1A
0a
0V
1J
0B
04
03
12
01
0&
0'
1(
0)
#75000
1$
19
1*
1`
1]
1U
0L
0I
0D
1>
0;
1:
0_
0^
0O
1F
1E
1a
1V
0J
1B
0`
1_
0U
1I
0F
14
13
02
11
1&
1'
0(
1)
1`
0I
0a
0V
1J
04
03
12
0&
0'
1(
1a
0J
14
02
1&
0(
#80000
0#
0?
0*
#85000
1%
1=
1*
#90000
1#
1?
0*
#100000
b111 !
0$
0#
1M
09
0?
1*
0j
1O
0]
1L
1D
1;
0:
0Y
1U
0_
0O
0N
1F
0E
1\
0`
0U
1^
1O
1I
1N
0F
1V
1_
1U
0^
0O
0I
13
1'
0a
0V
1J
1`
0_
0U
04
03
12
0&
0'
1(
1V
0J
0`
13
02
1'
0(
1a
0V
14
03
1&
0'
0a
04
0&
#110000
0%
1#
0=
1?
0*
1`
1I
0>
1a
1J
0B
14
12
01
1&
1(
0)
#120000
0#
0?
1*
0@
0A
#125000
1$
19
0*
0`
1]
0L
0I
0D
1@
1>
0;
1:
1A
1_
1O
1F
1E
0a
0J
1B
1`
1U
1I
0F
04
02
11
0&
0(
1)
0I
1a
1V
1J
14
13
12
1&
1'
1(
0J
02
0(
#130000
1#
1?
1*
#135000
1%
1=
0*
#140000
0#
0?
1*
#150000
0$
1#
09
1?
0*
0]
1L
1D
1;
0:
0_
0O
0N
1F
0E
0`
0U
1^
1O
1I
1N
0F
1_
1U
0^
0O
0I
0a
0V
1J
1`
0_
0U
04
03
12
0&
0'
1(
1V
0J
0`
13
02
1'
0(
1a
0V
14
03
1&
0'
0a
04
0&
#160000
0%
0#
0=
0?
1*
1`
1I
0@
0>
0A
#170000
1#
1?
0*
1@
1A
1a
1J
0B
14
12
01
1&
1(
0)
#175000
1$
19
1*
0`
1]
0L
0I
0D
1>
0;
1:
1_
1O
1F
1E
0a
0J
1B
1`
1U
1I
0F
04
02
11
0&
0(
1)
0I
1a
1V
1J
14
13
12
1&
1'
1(
0J
02
0(
#180000
b101 !
0#
0C
0?
0*
1k
0N
1F
1X
0R
0O
1I
1Y
0[
1T
0U
1J
12
1(
0V
03
0'
#185000
1%
1=
1*
#190000
1#
1?
0*
#200000
0$
0#
09
0?
1*
0]
1L
1D
1;
0:
0_
1^
1O
0F
0E
0`
1_
1U
0I
1F
1`
1I
0a
1V
0J
04
13
02
0&
1'
0(
1a
1J
14
12
1&
1(
#210000
0%
1#
0=
1?
0*
0>
0B
01
0)
#220000
0#
0?
1*
0@
0A
#225000
1$
19
0*
1]
0L
0D
1@
1>
0;
1:
1A
0_
0^
0O
1N
0F
1E
1B
0`
1_
0U
1O
0I
0N
1F
11
1)
1`
1U
0O
1I
0a
0V
0J
0U
04
03
02
0&
0'
0(
1a
1V
1J
14
13
12
1&
1'
1(
0V
03
0'
#230000
1#
1?
1*
#235000
1%
1=
0*
#240000
0#
0?
1*
#250000
0$
1#
09
1?
0*
0]
1L
1D
1;
0:
0_
1^
1O
0F
0E
0`
1_
1U
0I
1F
1`
1I
0a
1V
0J
04
13
02
0&
1'
0(
1a
1J
14
12
1&
1(
#260000
0%
0#
0=
0?
1*
0@
0>
0A
#270000
b100 "
b101 "
b100 !
b0 !
1#
07
0M
15
06
1?
0*
1f
0g
0<
0m
0k
0O
1:
1Z
0Q
0D
0G
18
1@
1A
0\
0T
1>
08
0X
1E
1<
0f
1N
0F
0H
0B
0`
0U
0>
0Y
0N
1F
1\
1O
0I
01
0)
1B
0\
0O
1`
11
1)
0a
0V
0B
0J
0`
04
03
01
02
0&
0'
0)
0(
1a
14
1&
0a
04
0&
#275000
1$
19
1*
1`
1]
0L
1I
1D
1>
0;
0:
0_
1O
0F
1a
1J
1B
0`
1U
0I
14
12
11
1&
1(
1)
0a
1V
0J
04
13
02
0&
1'
0(
#280000
0#
0?
0*
#285000
1%
1=
1*
#290000
1#
1?
0*
#300000
0$
0#
09
0?
1*
0]
1L
0D
1;
1:
1_
0O
1F
1`
0U
1I
1a
0V
1J
14
03
12
1&
0'
1(
#310000
0%
1#
0=
1?
0*
0`
0I
0>
0a
0J
0B
04
02
01
0&
0(
0)
#320000
0#
0?
1*
0@
0A
#325000
1$
19
0*
1`
1]
0L
1I
1D
1@
1>
0;
0:
1A
0_
1O
0F
1a
1J
1B
0`
1U
0I
14
12
11
1&
1(
1)
0a
1V
0J
04
13
02
0&
1'
0(
#330000
1#
1?
1*
#335000
1%
1=
0*
#340000
0#
0?
1*
#350000
0$
1#
09
1?
0*
0]
1L
0D
1;
1:
1_
0O
1F
1`
0U
1I
1a
0V
1J
14
03
12
1&
0'
1(
#360000
0%
0#
0=
0?
1*
0`
0I
0@
0>
0A
#370000
1#
1?
0*
1@
1A
0a
0J
0B
04
02
01
0&
0(
0)
#375000
1$
19
1*
1`
1]
0L
1I
1D
1>
0;
0:
0_
1O
0F
1a
1J
1B
0`
1U
0I
14
12
11
1&
1(
1)
0a
1V
0J
04
13
02
0&
1'
0(
#380000
0#
0?
0*
#385000
1%
1=
1*
#390000
1#
1?
0*
#400000
0$
0#
09
0?
1*
0]
1L
0D
1;
1:
1_
0O
1F
1`
0U
1I
1a
0V
1J
14
03
12
1&
0'
1(
#410000
0%
1#
0=
1?
0*
0`
0I
0>
0a
0J
0B
04
02
01
0&
0(
0)
#420000
0#
0?
1*
0@
0A
#425000
1$
19
0*
1`
1]
0L
1I
1D
1@
1>
0;
0:
1A
0_
1O
0F
1a
1J
1B
0`
1U
0I
14
12
11
1&
1(
1)
0a
1V
0J
04
13
02
0&
1'
0(
#430000
1#
1?
1*
#435000
1%
1=
0*
#440000
0#
0?
1*
#450000
0$
1#
09
1?
0*
0]
1L
0D
1;
1:
1_
0O
1F
1`
0U
1I
1a
0V
1J
14
03
12
1&
0'
1(
#460000
0%
0#
0=
0?
1*
0`
0I
0@
0>
0A
#470000
1#
1?
0*
1@
1A
0a
0J
0B
04
02
01
0&
0(
0)
#475000
1$
19
1*
1`
1]
0L
1I
1D
1>
0;
0:
0_
1O
0F
1a
1J
1B
0`
1U
0I
14
12
11
1&
1(
1)
0a
1V
0J
04
13
02
0&
1'
0(
#480000
0#
0?
0*
#485000
1%
1=
1*
#490000
1#
1?
0*
#500000
0$
0#
09
0?
1*
0]
1L
0D
1;
1:
1_
0O
1F
1`
0U
1I
1a
0V
1J
14
03
12
1&
0'
1(
#510000
0%
1#
0=
1?
0*
0`
0I
0>
0a
0J
0B
04
02
01
0&
0(
0)
#520000
0#
0?
1*
0@
0A
#525000
1$
19
0*
1`
1]
0L
1I
1D
1@
1>
0;
0:
1A
0_
1O
0F
1a
1J
1B
0`
1U
0I
14
12
11
1&
1(
1)
0a
1V
0J
04
13
02
0&
1'
0(
#530000
1#
1?
1*
#535000
1%
1=
0*
#540000
0#
0?
1*
#550000
0$
1#
09
1?
0*
0]
1L
0D
1;
1:
1_
0O
1F
1`
0U
1I
1a
0V
1J
14
03
12
1&
0'
1(
#560000
0%
0#
0=
0?
1*
0`
0I
0@
0>
0A
#570000
1#
1?
0*
1@
1A
0a
0J
0B
04
02
01
0&
0(
0)
#575000
1$
19
1*
1`
1]
0L
1I
1D
1>
0;
0:
0_
1O
0F
1a
1J
1B
0`
1U
0I
14
12
11
1&
1(
1)
0a
1V
0J
04
13
02
0&
1'
0(
#580000
0#
0?
0*
#585000
1%
1=
1*
#590000
1#
1?
0*
#600000
0$
0#
09
0?
1*
0]
1L
0D
1;
1:
1_
0O
1F
1`
0U
1I
1a
0V
1J
14
03
12
1&
0'
1(
#610000
0%
1#
0=
1?
0*
0`
0I
0>
0a
0J
0B
04
02
01
0&
0(
0)
#620000
0#
0?
1*
0@
0A
#625000
1$
19
0*
1`
1]
0L
1I
1D
1@
1>
0;
0:
1A
0_
1O
0F
1a
1J
1B
0`
1U
0I
14
12
11
1&
1(
1)
0a
1V
0J
04
13
02
0&
1'
0(
#630000
1#
1?
1*
#635000
1%
1=
0*
#640000
0#
0?
1*
#650000
0$
1#
09
1?
0*
0]
1L
0D
1;
1:
1_
0O
1F
1`
0U
1I
1a
0V
1J
14
03
12
1&
0'
1(
#660000
0%
0#
0=
0?
1*
0`
0I
0@
0>
0A
#670000
1#
1?
0*
1@
1A
0a
0J
0B
04
02
01
0&
0(
0)
#675000
1$
19
1*
1`
1]
0L
1I
1D
1>
0;
0:
0_
1O
0F
1a
1J
1B
0`
1U
0I
14
12
11
1&
1(
1)
0a
1V
0J
04
13
02
0&
1'
0(
#680000
0#
0?
0*
#685000
1%
1=
1*
#690000
1#
1?
0*
#700000
0$
0#
09
0?
1*
0]
1L
0D
1;
1:
1_
0O
1F
1`
0U
1I
1a
0V
1J
14
03
12
1&
0'
1(
#710000
0%
1#
0=
1?
0*
0`
0I
0>
0a
0J
0B
04
02
01
0&
0(
0)
#720000
0#
0?
1*
0@
0A
#725000
1$
19
0*
1`
1]
0L
1I
1D
1@
1>
0;
0:
1A
0_
1O
0F
1a
1J
1B
0`
1U
0I
14
12
11
1&
1(
1)
0a
1V
0J
04
13
02
0&
1'
0(
#730000
1#
1?
1*
#735000
1%
1=
0*
#740000
0#
0?
1*
#750000
0$
1#
09
1?
0*
0]
1L
0D
1;
1:
1_
0O
1F
1`
0U
1I
1a
0V
1J
14
03
12
1&
0'
1(
#760000
0%
0#
0=
0?
1*
0`
0I
0@
0>
0A
#770000
1#
1?
0*
1@
1A
0a
0J
0B
04
02
01
0&
0(
0)
#775000
1$
19
1*
1`
1]
0L
1I
1D
1>
0;
0:
0_
1O
0F
1a
1J
1B
0`
1U
0I
14
12
11
1&
1(
1)
0a
1V
0J
04
13
02
0&
1'
0(
#780000
0#
0?
0*
#785000
1%
1=
1*
#790000
1#
1?
0*
#800000
0$
0#
09
0?
1*
0]
1L
0D
1;
1:
1_
0O
1F
1`
0U
1I
1a
0V
1J
14
03
12
1&
0'
1(
#810000
0%
1#
0=
1?
0*
0`
0I
0>
0a
0J
0B
04
02
01
0&
0(
0)
#820000
0#
0?
1*
0@
0A
#825000
1$
19
0*
1`
1]
0L
1I
1D
1@
1>
0;
0:
1A
0_
1O
0F
1a
1J
1B
0`
1U
0I
14
12
11
1&
1(
1)
0a
1V
0J
04
13
02
0&
1'
0(
#830000
1#
1?
1*
#835000
1%
1=
0*
#840000
0#
0?
1*
#850000
0$
1#
09
1?
0*
0]
1L
0D
1;
1:
1_
0O
1F
1`
0U
1I
1a
0V
1J
14
03
12
1&
0'
1(
#860000
0%
0#
0=
0?
1*
0`
0I
0@
0>
0A
#870000
1#
1?
0*
1@
1A
0a
0J
0B
04
02
01
0&
0(
0)
#875000
1$
19
1*
1`
1]
0L
1I
1D
1>
0;
0:
0_
1O
0F
1a
1J
1B
0`
1U
0I
14
12
11
1&
1(
1)
0a
1V
0J
04
13
02
0&
1'
0(
#880000
0#
0?
0*
#885000
1%
1=
1*
#890000
1#
1?
0*
#900000
0$
0#
09
0?
1*
0]
1L
0D
1;
1:
1_
0O
1F
1`
0U
1I
1a
0V
1J
14
03
12
1&
0'
1(
#910000
0%
1#
0=
1?
0*
0`
0I
0>
0a
0J
0B
04
02
01
0&
0(
0)
#920000
0#
0?
1*
0@
0A
#925000
1$
19
0*
1`
1]
0L
1I
1D
1@
1>
0;
0:
1A
0_
1O
0F
1a
1J
1B
0`
1U
0I
14
12
11
1&
1(
1)
0a
1V
0J
04
13
02
0&
1'
0(
#930000
1#
1?
1*
#935000
1%
1=
0*
#940000
0#
0?
1*
#950000
0$
1#
09
1?
0*
0]
1L
0D
1;
1:
1_
0O
1F
1`
0U
1I
1a
0V
1J
14
03
12
1&
0'
1(
#960000
0%
0#
0=
0?
1*
0`
0I
0@
0>
0A
#970000
1#
1?
0*
1@
1A
0a
0J
0B
04
02
01
0&
0(
0)
#975000
1$
19
1*
1`
1]
0L
1I
1D
1>
0;
0:
0_
1O
0F
1a
1J
1B
0`
1U
0I
14
12
11
1&
1(
1)
0a
1V
0J
04
13
02
0&
1'
0(
#980000
0#
0?
0*
#985000
1%
1=
1*
#990000
1#
1?
0*
