av2/counter_up_down/simulation/qsim/counter_up_down.msim.vcd
$comment
	File created using the following command:
		vcd file counter_up_down.msim.vcd -direction
$end
$date
	Tue Oct 11 19:20:04 2022
$end
$version
	ModelSim Version 10.1d
$end
$timescale
	1ps
$end
$scope module binary_up_down_counter_vlg_vec_tst $end
$var reg 1 ! clk $end
$var reg 1 " enable $end
$var reg 1 # reset $end
$var reg 1 $ updown $end
$var wire 1 % q [7] $end
$var wire 1 & q [6] $end
$var wire 1 ' q [5] $end
$var wire 1 ( q [4] $end
$var wire 1 ) q [3] $end
$var wire 1 * q [2] $end
$var wire 1 + q [1] $end
$var wire 1 , q [0] $end
$var wire 1 - sampler $end
$scope module i1 $end
$var wire 1 . gnd $end
$var wire 1 / vcc $end
$var wire 1 0 unknown $end
$var tri1 1 1 devclrn $end
$var tri1 1 2 devpor $end
$var tri1 1 3 devoe $end
$var wire 1 4 q[0]~output_o $end
$var wire 1 5 q[1]~output_o $end
$var wire 1 6 q[2]~output_o $end
$var wire 1 7 q[3]~output_o $end
$var wire 1 8 q[4]~output_o $end
$var wire 1 9 q[5]~output_o $end
$var wire 1 : q[6]~output_o $end
$var wire 1 ; q[7]~output_o $end
$var wire 1 < clk~input_o $end
$var wire 1 = cnt[0]~8_combout $end
$var wire 1 > reset~input_o $end
$var wire 1 ? enable~input_o $end
$var wire 1 @ cnt[0]~10_combout $end
$var wire 1 A updown~input_o $end
$var wire 1 B cnt[0]~9 $end
$var wire 1 C cnt[1]~11_combout $end
$var wire 1 D cnt[1]~12 $end
$var wire 1 E cnt[2]~13_combout $end
$var wire 1 F cnt[2]~14 $end
$var wire 1 G cnt[3]~15_combout $end
$var wire 1 H cnt[3]~16 $end
$var wire 1 I cnt[4]~17_combout $end
$var wire 1 J cnt[4]~18 $end
$var wire 1 K cnt[5]~19_combout $end
$var wire 1 L cnt[5]~20 $end
$var wire 1 M cnt[6]~21_combout $end
$var wire 1 N cnt[6]~22 $end
$var wire 1 O cnt[7]~23_combout $end
$var wire 1 P cnt [7] $end
$var wire 1 Q cnt [6] $end
$var wire 1 R cnt [5] $end
$var wire 1 S cnt [4] $end
$var wire 1 T cnt [3] $end
$var wire 1 U cnt [2] $end
$var wire 1 V cnt [1] $end
$var wire 1 W cnt [0] $end
$upscope $end
$upscope $end
$enddefinitions $end
#0
$dumpvars
0!
1"
0#
1$
0,
0+
0*
0)
0(
0'
0&
0%
x-
0.
1/
x0
11
12
13
04
05
06
07
08
09
0:
0;
0<
1=
0>
1?
1@
1A
0B
0C
1D
0E
0F
0G
1H
0I
0J
0K
1L
0M
0N
0O
0W
0V
0U
0T
0S
0R
0Q
0P
$end
#25000
1!
1<
0-
1W
1B
0=
14
1,
1C
#50000
0!
0<
1-
#75000
1!
1<
0-
1V
0W
0D
0C
0B
1=
15
04
1+
0,
1E
1D
1C
0E
#100000
0!
0<
1-
#125000
1!
1<
0-
1W
1B
0=
14
1,
0D
0C
1E
#150000
0!
0<
1-
#175000
1!
1<
0-
1U
0V
0W
1F
0E
1D
1C
0B
1=
16
05
04
1*
0+
0,
1G
0F
1E
0C
0G
#200000
0!
0<
1-
#225000
1!
1<
0-
1W
1B
0=
14
1,
1C
#250000
0!
0<
1-
#275000
1!
1<
0-
1V
0W
0D
0C
0B
1=
15
04
1+
0,
1F
0E
1D
1C
1G
0F
1E
0G
#300000
0!
0<
1-
#325000
1!
1<
0-
1W
1B
0=
14
1,
0D
0C
1F
0E
1G
#330000
0$
0A
1-
1O
1M
1K
1I
0H
0G
1E
1C
1J
0I
0L
0K
1N
0M
0O
#350000
0!
0<
0-
#375000
1!
1<
1-
0W
0B
1=
04
0,
0C
#400000
0!
0<
0-
#425000
1!
1<
1-
0V
1W
1D
1C
1B
0=
05
14
0+
1,
0E
0D
0C
1E
#450000
0!
0<
0-
#475000
1!
1<
1-
0W
0B
1=
04
0,
1D
1C
0E
#500000
0!
0<
0-
#525000
1!
1<
1-
0U
1V
1W
0F
1E
0D
0C
1B
0=
06
15
14
0*
1+
1,
1H
1G
1F
0E
1C
0J
1I
0H
0G
1L
1K
1J
0I
0N
1M
0L
0K
1O
1N
0M
0O
#550000
0!
0<
0-
#575000
1!
1<
1-
0W
0B
1=
04
0,
0C
#600000
0!
0<
0-
#625000
1!
1<
1-
0V
1W
1D
1C
1B
0=
05
14
0+
1,
0F
1E
0D
0C
1H
1G
1F
0E
0J
1I
0H
0G
1L
1K
1J
0I
0N
1M
0L
0K
1O
1N
0M
0O
#650000
0!
0<
0-
#660000
1$
1A
1-
1O
0N
1M
1L
1K
0J
1I
1H
1G
0F
1E
1D
1C
0O
0M
0K
0I
0G
0E
#675000
1!
1<
0-
1V
0W
0D
0C
0B
1=
15
04
1+
0,
1E
1D
1C
0E
#700000
0!
0<
1-
#710000
1#
1>
0-
#725000
1!
1<
1-
0V
0C
05
0+
#750000
0!
0<
0-
#775000
1!
1<
1-
#790000
0#
0>
0-
#800000
0!
0<
1-
#825000
1!
1<
0-
1W
1B
0=
14
1,
1C
#850000
0!
0<
1-
#875000
1!
1<
0-
1V
0W
0D
0C
0B
1=
15
04
1+
0,
1E
1D
1C
0E
#900000
0!
0<
1-
#925000
1!
1<
0-
1W
1B
0=
14
1,
0D
0C
1E
#950000
0!
0<
1-
#975000
1!
1<
0-
1U
0V
0W
1F
0E
1D
1C
0B
1=
16
05
04
1*
0+
0,
1G
0F
1E
0C
0G
