av2/for_generate/simulation/qsim/for_generate.msim.vcd
$comment
	File created using the following command:
		vcd file for_generate.msim.vcd -direction
$end
$date
	Thu Oct 06 20:01:18 2022
$end
$version
	ModelSim Version 10.1d
$end
$timescale
	1ps
$end
$scope module counter_bcd_up_vlg_vec_tst $end
$var reg 1 ! in_1 $end
$var wire 1 " q [3] $end
$var wire 1 # q [2] $end
$var wire 1 $ q [1] $end
$var wire 1 % q [0] $end
$var wire 1 & sampler $end
$scope module i1 $end
$var wire 1 ' gnd $end
$var wire 1 ( vcc $end
$var wire 1 ) unknown $end
$var tri1 1 * devclrn $end
$var tri1 1 + devpor $end
$var tri1 1 , devoe $end
$var wire 1 - q[0]~output_o $end
$var wire 1 . q[1]~output_o $end
$var wire 1 / q[2]~output_o $end
$var wire 1 0 q[3]~output_o $end
$var wire 1 1 in_1~input_o $end
$var wire 1 2 in_1~inputclkctrl_outclk $end
$var wire 1 3 jk_ff_0|qx~0_combout $end
$var wire 1 4 jk_ff_0|qx~q $end
$var wire 1 5 gen_1:1:gen_2:jk_ff_i|qx~0_combout $end
$var wire 1 6 gen_1:1:gen_2:jk_ff_i|qx~q $end
$var wire 1 7 gen_1:2:gen_2:jk_ff_i|qx~0_combout $end
$var wire 1 8 gen_1:2:gen_2:jk_ff_i|qx~q $end
$var wire 1 9 gen_1:3:gen_3:jk_ff_3|qx~0_combout $end
$var wire 1 : gen_1:3:gen_3:jk_ff_3|qx~q $end
$upscope $end
$upscope $end
$enddefinitions $end
#0
$dumpvars
0!
0%
0$
0#
0"
x&
0'
1(
x)
1*
1+
1,
0-
0.
0/
00
01
02
13
04
05
06
07
08
09
0:
$end
#25000
1!
11
12
0&
14
15
03
1-
1%
#50000
0!
01
02
1&
#75000
1!
11
12
0&
16
04
13
1.
0-
1$
0%
#100000
0!
01
02
1&
#125000
1!
11
12
0&
14
17
05
03
1-
1%
#150000
0!
01
02
1&
#175000
1!
11
12
0&
18
06
04
13
1/
0.
0-
1#
0$
0%
#200000
0!
01
02
1&
#225000
1!
11
12
0&
14
15
03
1-
1%
#250000
0!
01
02
1&
#275000
1!
11
12
0&
16
04
13
1.
0-
1$
0%
#300000
0!
01
02
1&
#325000
1!
11
12
0&
14
19
07
05
03
1-
1%
#350000
0!
01
02
1&
#375000
1!
11
12
0&
1:
08
06
04
13
10
0/
0.
0-
1"
0#
0$
0%
#400000
0!
01
02
1&
#425000
1!
11
12
0&
14
15
03
1-
1%
#450000
0!
01
02
1&
#475000
1!
11
12
0&
16
04
13
1.
0-
1$
0%
#500000
0!
01
02
1&
#525000
1!
11
12
0&
14
17
05
03
1-
1%
#550000
0!
01
02
1&
#575000
1!
11
12
0&
18
06
04
13
1/
0.
0-
1#
0$
0%
#600000
0!
01
02
1&
#625000
1!
11
12
0&
14
15
03
1-
1%
#650000
0!
01
02
1&
#675000
1!
11
12
0&
16
04
13
1.
0-
1$
0%
#700000
0!
01
02
1&
#725000
1!
11
12
0&
14
09
07
05
03
1-
1%
#750000
0!
01
02
1&
#775000
1!
11
12
0&
0:
08
06
04
13
00
0/
0.
0-
0"
0#
0$
0%
#800000
0!
01
02
1&
#825000
1!
11
12
0&
14
15
03
1-
1%
#850000
0!
01
02
1&
#875000
1!
11
12
0&
16
04
13
1.
0-
1$
0%
#900000
0!
01
02
1&
#925000
1!
11
12
0&
14
17
05
03
1-
1%
#950000
0!
01
02
1&
#975000
1!
11
12
0&
18
06
04
13
1/
0.
0-
1#
0$
0%
