reg4/simulation/qsim/reg4.msim.vcd
$comment
	File created using the following command:
		vcd file reg4.msim.vcd -direction
$end
$date
	Tue Sep 06 19:51:39 2022
$end
$version
	ModelSim Version 10.1d
$end
$timescale
	1ps
$end
$scope module reg4_vlg_vec_tst $end
$var reg 1 ! clk $end
$var reg 1 " d0 $end
$var reg 1 # d1 $end
$var reg 1 $ d2 $end
$var reg 1 % d3 $end
$var reg 1 & en $end
$var wire 1 ' q0 $end
$var wire 1 ( q1 $end
$var wire 1 ) q2 $end
$var wire 1 * q3 $end
$var wire 1 + sampler $end
$scope module i1 $end
$var wire 1 , gnd $end
$var wire 1 - vcc $end
$var wire 1 . unknown $end
$var tri1 1 / devclrn $end
$var tri1 1 0 devpor $end
$var tri1 1 1 devoe $end
$var wire 1 2 q0~output_o $end
$var wire 1 3 q1~output_o $end
$var wire 1 4 q2~output_o $end
$var wire 1 5 q3~output_o $end
$var wire 1 6 clk~input_o $end
$var wire 1 7 clk~inputclkctrl_outclk $end
$var wire 1 8 d0~input_o $end
$var wire 1 9 carga:d0_temp~feeder_combout $end
$var wire 1 : en~input_o $end
$var wire 1 ; carga:d0_temp~q $end
$var wire 1 < d1~input_o $end
$var wire 1 = carga:d1_temp~feeder_combout $end
$var wire 1 > carga:d1_temp~q $end
$var wire 1 ? d2~input_o $end
$var wire 1 @ carga:d2_temp~q $end
$var wire 1 A d3~input_o $end
$var wire 1 B carga:d3_temp~q $end
$upscope $end
$upscope $end
$enddefinitions $end
#0
$dumpvars
0!
0"
0#
0$
0%
0&
x'
x(
x)
x*
x+
0,
1-
x.
1/
10
11
x2
x3
x4
x5
06
x7
08
x9
0:
0;
0<
x=
0>
0?
0@
0A
0B
$end
#145
07
#2616
03
0(
#2798
05
0*
#2852
0=
#2907
04
0)
#3037
02
0'
#3265
09
#5000
1!
0+
#5775
16
#5938
17
#10000
0!
1+
#10936
06
#11081
07
#15000
1!
0+
#15775
16
#15938
17
#20000
0!
1+
#20936
06
#21081
07
#25000
1!
0+
#25775
16
#25938
17
#30000
0!
1+
#30936
06
#31081
07
#35000
1!
0+
#35775
16
#35938
17
#40000
0!
1+
#40936
06
#41081
07
#45000
1!
0+
#45775
16
#45938
17
#50000
0!
1+
#50936
06
#51081
07
#55000
1!
0+
#55775
16
#55938
17
#60000
0!
1+
#60936
06
#61081
07
#65000
1!
0+
#65775
16
#65938
17
#70000
0!
1+
#70936
06
#71081
07
#75000
1!
0+
#75775
16
#75938
17
#80000
0!
1+
#80936
06
#81081
07
#85000
1!
0+
#85775
16
#85938
17
#90000
0!
1+
#90936
06
#91081
07
#95000
1!
0+
#95775
16
#95938
17
#100000
1%
0!
1+
#100745
1A
#100936
06
#101081
07
#105000
1!
0+
#105775
16
#105938
17
#110000
0!
1+
#110936
06
#111081
07
#115000
1!
0+
#115775
16
#115938
17
#120000
1&
0!
1+
#120735
1:
#120936
06
#121081
07
#125000
1!
0+
#125775
16
#125938
17
#127638
1B
#130000
0!
1+
#130416
15
1*
#130936
06
#131081
07
#135000
1!
0+
#135775
16
#135938
17
#140000
0!
1+
#140936
06
#141081
07
#145000
1!
0+
#145775
16
#145938
17
#150000
0!
1+
#150936
06
#151081
07
#155000
1!
0+
#155775
16
#155938
17
#160000
0!
1+
#160936
06
#161081
07
#165000
1!
0+
#165775
16
#165938
17
#170000
0!
1+
#170936
06
#171081
07
#175000
1!
0+
#175775
16
#175938
17
#180000
0!
1+
#180936
06
#181081
07
#185000
1!
0+
#185775
16
#185938
17
#190000
0!
1+
#190936
06
#191081
07
#195000
1!
0+
#195775
16
#195938
17
#200000
1$
0%
0!
1+
#200735
1?
#200906
0A
#200936
06
#201081
07
#205000
1!
0+
#205775
16
#205938
17
#207638
1@
0B
#210000
0!
1+
#210436
05
0*
#210508
14
1)
#210936
06
#211081
07
#215000
1!
0+
#215775
16
#215938
17
#220000
0!
1+
#220936
06
#221081
07
#225000
1!
0+
#225775
16
#225938
17
#230000
0!
1+
#230936
06
#231081
07
#235000
1!
0+
#235775
16
#235938
17
#240000
0!
1+
#240936
06
#241081
07
#245000
1!
0+
#245775
16
#245938
17
#250000
0!
1+
#250936
06
#251081
07
#255000
1!
0+
#255775
16
#255938
17
#260000
0!
1+
#260936
06
#261081
07
#265000
1!
0+
#265775
16
#265938
17
#270000
0!
1+
#270936
06
#271081
07
#275000
1!
0+
#275775
16
#275938
17
#280000
0!
1+
#280936
06
#281081
07
#285000
1!
0+
#285775
16
#285938
17
#290000
0!
1+
#290936
06
#291081
07
#295000
1!
0+
#295775
16
#295938
17
#300000
1%
0!
1+
#300745
1A
#300936
06
#301081
07
#305000
1!
0+
#305775
16
#305938
17
#307638
1B
#310000
0!
1+
#310416
15
1*
#310936
06
#311081
07
#315000
1!
0+
#315775
16
#315938
17
#320000
0!
1+
#320936
06
#321081
07
#325000
1!
0+
#325775
16
#325938
17
#330000
0!
1+
#330936
06
#331081
07
#335000
1!
0+
#335775
16
#335938
17
#340000
0!
1+
#340936
06
#341081
07
#345000
1!
0+
#345775
16
#345938
17
#350000
0!
1+
#350936
06
#351081
07
#355000
1!
0+
#355775
16
#355938
17
#360000
0!
1+
#360936
06
#361081
07
#365000
1!
0+
#365775
16
#365938
17
#370000
0!
1+
#370936
06
#371081
07
#375000
1!
0+
#375775
16
#375938
17
#380000
0!
1+
#380936
06
#381081
07
#385000
1!
0+
#385775
16
#385938
17
#390000
0!
1+
#390936
06
#391081
07
#395000
1!
0+
#395775
16
#395938
17
#400000
1#
0$
0%
0!
1+
#400725
1<
#400896
0?
#400906
0A
#400936
06
#401081
07
#403338
1=
#405000
1!
0+
#405775
16
#405938
17
#407638
1>
0@
0B
#410000
0!
1+
#410219
13
1(
#410436
05
0*
#410545
04
0)
#410936
06
#411081
07
#415000
1!
0+
#415775
16
#415938
17
#420000
0!
1+
#420936
06
#421081
07
#425000
1!
0+
#425775
16
#425938
17
#430000
0!
1+
#430936
06
#431081
07
#435000
1!
0+
#435775
16
#435938
17
#440000
0!
1+
#440936
06
#441081
07
#445000
1!
0+
#445775
16
#445938
17
#450000
0!
1+
#450936
06
#451081
07
#455000
1!
0+
#455775
16
#455938
17
#460000
0!
1+
#460936
06
#461081
07
#465000
1!
0+
#465775
16
#465938
17
#470000
0!
1+
#470936
06
#471081
07
#475000
1!
0+
#475775
16
#475938
17
#480000
0!
1+
#480936
06
#481081
07
#485000
1!
0+
#485775
16
#485938
17
#490000
0!
1+
#490936
06
#491081
07
#495000
1!
0+
#495775
16
#495938
17
#500000
1%
0!
1+
#500745
1A
#500936
06
#501081
07
#505000
1!
0+
#505775
16
#505938
17
#507638
1B
#510000
0!
1+
#510416
15
1*
#510936
06
#511081
07
#515000
1!
0+
#515775
16
#515938
17
#520000
0!
1+
#520936
06
#521081
07
#525000
1!
0+
#525775
16
#525938
17
#530000
0!
1+
#530936
06
#531081
07
#535000
1!
0+
#535775
16
#535938
17
#540000
0!
1+
#540936
06
#541081
07
#545000
1!
0+
#545775
16
#545938
17
#550000
0!
1+
#550936
06
#551081
07
#555000
1!
0+
#555775
16
#555938
17
#560000
0!
1+
#560936
06
#561081
07
#565000
1!
0+
#565775
16
#565938
17
#570000
0!
1+
#570936
06
#571081
07
#575000
1!
0+
#575775
16
#575938
17
#580000
0!
1+
#580936
06
#581081
07
#585000
1!
0+
#585775
16
#585938
17
#590000
0!
1+
#590936
06
#591081
07
#595000
1!
0+
#595775
16
#595938
17
#600000
1$
0%
0!
1+
#600735
1?
#600906
0A
#600936
06
#601081
07
#605000
1!
0+
#605775
16
#605938
17
#607638
1@
0B
#610000
0!
1+
#610436
05
0*
#610508
14
1)
#610936
06
#611081
07
#615000
1!
0+
#615775
16
#615938
17
#620000
0&
0!
1+
#620896
0:
#620936
06
#621081
07
#625000
1!
0+
#625775
16
#625938
17
#630000
0!
1+
#630936
06
#631081
07
#635000
1!
0+
#635775
16
#635938
17
#640000
0!
1+
#640936
06
#641081
07
#645000
1!
0+
#645775
16
#645938
17
#650000
0!
1+
#650936
06
#651081
07
#655000
1!
0+
#655775
16
#655938
17
#660000
0!
1+
#660936
06
#661081
07
#665000
1!
0+
#665775
16
#665938
17
#670000
0!
1+
#670936
06
#671081
07
#675000
1!
0+
#675775
16
#675938
17
#680000
0!
1+
#680936
06
#681081
07
#685000
1!
0+
#685775
16
#685938
17
#690000
0!
1+
#690936
06
#691081
07
#695000
1!
0+
#695775
16
#695938
17
#700000
1%
0!
1+
#700745
1A
#700936
06
#701081
07
#705000
1!
0+
#705775
16
#705938
17
#710000
0!
1+
#710936
06
#711081
07
#715000
1!
0+
#715775
16
#715938
17
#720000
0!
1+
#720936
06
#721081
07
#725000
1!
0+
#725775
16
#725938
17
#730000
0!
1+
#730936
06
#731081
07
#735000
1!
0+
#735775
16
#735938
17
#740000
0!
1+
#740936
06
#741081
07
#745000
1!
0+
#745775
16
#745938
17
#750000
0!
1+
#750936
06
#751081
07
#755000
1!
0+
#755775
16
#755938
17
#760000
0!
1+
#760936
06
#761081
07
#765000
1!
0+
#765775
16
#765938
17
#770000
0!
1+
#770936
06
#771081
07
#775000
1!
0+
#775775
16
#775938
17
#780000
0!
1+
#780936
06
#781081
07
#785000
1!
0+
#785775
16
#785938
17
#790000
0!
1+
#790936
06
#791081
07
#795000
1!
0+
#795775
16
#795938
17
#800000
1"
0#
0$
0%
0!
1+
#800715
18
#800886
0<
#800896
0?
#800906
0A
#800936
06
#801081
07
#803735
19
#803738
0=
#805000
1!
0+
#805775
16
#805938
17
#810000
0!
1+
#810936
06
#811081
07
#815000
1!
0+
#815775
16
#815938
17
#820000
0!
1+
#820936
06
#821081
07
#825000
1!
0+
#825775
16
#825938
17
#830000
0!
1+
#830936
06
#831081
07
#835000
1!
0+
#835775
16
#835938
17
#840000
0!
1+
#840936
06
#841081
07
#845000
1!
0+
#845775
16
#845938
17
#850000
0!
1+
#850936
06
#851081
07
#855000
1!
0+
#855775
16
#855938
17
#860000
0!
1+
#860936
06
#861081
07
#865000
1!
0+
#865775
16
#865938
17
#870000
0!
1+
#870936
06
#871081
07
#875000
1!
0+
#875775
16
#875938
17
#880000
0!
1+
#880936
06
#881081
07
#885000
1!
0+
#885775
16
#885938
17
#890000
0!
1+
#890936
06
#891081
07
#895000
1!
0+
#895775
16
#895938
17
#900000
1%
0!
1+
#900745
1A
#900936
06
#901081
07
#905000
1!
0+
#905775
16
#905938
17
#910000
0!
1+
#910936
06
#911081
07
#915000
1!
0+
#915775
16
#915938
17
#920000
0!
1+
#920936
06
#921081
07
#925000
1!
0+
#925775
16
#925938
17
#930000
0!
1+
#930936
06
#931081
07
#935000
1!
0+
#935775
16
#935938
17
#940000
0!
1+
#940936
06
#941081
07
#945000
1!
0+
#945775
16
#945938
17
#950000
0!
1+
#950936
06
#951081
07
#955000
1!
0+
#955775
16
#955938
17
#960000
0!
1+
#960936
06
#961081
07
#965000
1!
0+
#965775
16
#965938
17
#970000
0!
1+
#970936
06
#971081
07
#975000
1!
0+
#975775
16
#975938
17
#980000
0!
1+
#980936
06
#981081
07
#985000
1!
0+
#985775
16
#985938
17
#990000
0!
1+
#990936
06
#991081
07
#995000
1!
0+
#995775
16
